0:0:0:0:0:0:0:1 - - [12/Dec/2018:00:26:20 +0900] "GET /dbconn/xml/DB_con2.jsp HTTP/1.1" 500 2653
0:0:0:0:0:0:0:1 - - [12/Dec/2018:00:26:47 +0900] "GET /dbconn/xml/DB_con2.jsp HTTP/1.1" 200 1150
0:0:0:0:0:0:0:1 - - [12/Dec/2018:00:26:47 +0900] "GET /favicon.ico HTTP/1.1" 200 21630
0:0:0:0:0:0:0:1 - - [12/Dec/2018:00:27:18 +0900] "GET /dbconn/xml/DB_con.jsp HTTP/1.1" 200 2027
0:0:0:0:0:0:0:1 - - [12/Dec/2018:00:27:32 +0900] "GET /dbconn/xml/DB_con.jsp HTTP/1.1" 200 2027
0:0:0:0:0:0:0:1 - - [12/Dec/2018:00:27:33 +0900] "GET /dbconn/xml/DB_con.jsp HTTP/1.1" 200 2027
0:0:0:0:0:0:0:1 - - [12/Dec/2018:00:27:35 +0900] "GET /dbconn/xml/DB_con2.jsp HTTP/1.1" 200 4845
0:0:0:0:0:0:0:1 - - [12/Dec/2018:00:27:59 +0900] "GET /dbconn/xml/DB_con2.jsp HTTP/1.1" 200 4893
0:0:0:0:0:0:0:1 - - [12/Dec/2018:00:28:14 +0900] "GET /dbconn/xml/DB_con2.jsp HTTP/1.1" 500 5072
0:0:0:0:0:0:0:1 - - [12/Dec/2018:00:30:59 +0900] "GET /dbconn/xml/DB_con2.jsp HTTP/1.1" 500 5072
0:0:0:0:0:0:0:1 - - [12/Dec/2018:00:31:45 +0900] "GET /dbconn/xml/DB_con2.jsp HTTP/1.1" 500 5777
0:0:0:0:0:0:0:1 - - [12/Dec/2018:00:32:04 +0900] "GET /dbconn/xml/DB_con2.jsp HTTP/1.1" 500 5334
0:0:0:0:0:0:0:1 - - [12/Dec/2018:00:32:21 +0900] "GET /dbconn/xml/DB_con2.jsp HTTP/1.1" 200 6774
0:0:0:0:0:0:0:1 - - [12/Dec/2018:00:32:41 +0900] "GET /dbconn/xml/DB_con2.jsp HTTP/1.1" 200 6778
0:0:0:0:0:0:0:1 - - [12/Dec/2018:00:32:42 +0900] "GET /dbconn/xml/list.jsp HTTP/1.1" 200 3443
0:0:0:0:0:0:0:1 - - [12/Dec/2018:00:32:44 +0900] "GET /dbconn/xml/DB_con2.jsp HTTP/1.1" 200 6778
0:0:0:0:0:0:0:1 - - [12/Dec/2018:00:32:48 +0900] "GET /dbconn/xml/list.jsp HTTP/1.1" 200 3443
0:0:0:0:0:0:0:1 - - [12/Dec/2018:00:32:49 +0900] "GET /dbconn/xml/DB_con2.jsp HTTP/1.1" 200 6778
0:0:0:0:0:0:0:1 - - [12/Dec/2018:00:33:06 +0900] "GET /dbconn/xml/DB_con2.jsp HTTP/1.1" 200 6578
0:0:0:0:0:0:0:1 - - [12/Dec/2018:00:35:55 +0900] "GET /dbconn/xml/DB_con2.jsp HTTP/1.1" 200 1818
0:0:0:0:0:0:0:1 - - [12/Dec/2018:00:35:56 +0900] "GET /dbconn/xml/DB_con2.jsp HTTP/1.1" 200 1818
0:0:0:0:0:0:0:1 - - [12/Dec/2018:00:36:19 +0900] "GET /dbconn/xml/DB_con2.jsp HTTP/1.1" 200 6046
0:0:0:0:0:0:0:1 - - [12/Dec/2018:00:40:18 +0900] "GET /dbconn/xml/list.jsp HTTP/1.1" 200 3443
0:0:0:0:0:0:0:1 - - [12/Dec/2018:00:40:19 +0900] "GET /dbconn/xml/recipe4.jsp HTTP/1.1" 200 435
0:0:0:0:0:0:0:1 - - [12/Dec/2018:00:40:42 +0900] "GET /dbconn/xml/recipe4.jsp HTTP/1.1" 200 5312
0:0:0:0:0:0:0:1 - - [12/Dec/2018:00:41:01 +0900] "GET /dbconn/xml/recipe7.jsp HTTP/1.1" 200 435
0:0:0:0:0:0:0:1 - - [12/Dec/2018:00:41:04 +0900] "GET /dbconn/xml/recipe2.jsp HTTP/1.1" 200 5359
0:0:0:0:0:0:0:1 - - [12/Dec/2018:00:41:05 +0900] "GET /dbconn/xml/recipe6.jsp HTTP/1.1" 200 5442
0:0:0:0:0:0:0:1 - - [12/Dec/2018:00:41:08 +0900] "GET /dbconn/xml/recipe8.jsp HTTP/1.1" 200 5563
0:0:0:0:0:0:0:1 - - [12/Dec/2018:00:41:10 +0900] "GET /dbconn/xml/recipe7.jsp HTTP/1.1" 200 435
0:0:0:0:0:0:0:1 - - [12/Dec/2018:00:41:30 +0900] "GET /dbconn/xml/recipe7.jsp HTTP/1.1" 200 435
0:0:0:0:0:0:0:1 - - [12/Dec/2018:00:42:01 +0900] "GET /dbconn/xml/recipe7.jsp HTTP/1.1" 200 435
0:0:0:0:0:0:0:1 - - [12/Dec/2018:00:42:02 +0900] "GET /dbconn/xml/recipe7.jsp HTTP/1.1" 200 435
0:0:0:0:0:0:0:1 - - [12/Dec/2018:00:42:32 +0900] "GET /dbconn/xml/recipe6.jsp HTTP/1.1" 200 5442
0:0:0:0:0:0:0:1 - - [12/Dec/2018:00:42:34 +0900] "GET /dbconn/xml/recipe5.jsp HTTP/1.1" 200 5415
0:0:0:0:0:0:0:1 - - [12/Dec/2018:00:42:37 +0900] "GET /dbconn/xml/recipe8.jsp HTTP/1.1" 200 5563
0:0:0:0:0:0:0:1 - - [12/Dec/2018:00:42:39 +0900] "GET /dbconn/xml/recipe3.jsp HTTP/1.1" 200 6010
0:0:0:0:0:0:0:1 - - [12/Dec/2018:00:42:41 +0900] "GET /dbconn/xml/recipe2.jsp HTTP/1.1" 200 5359
0:0:0:0:0:0:0:1 - - [12/Dec/2018:00:42:44 +0900] "GET /dbconn/xml/recipe4.jsp HTTP/1.1" 200 5312
0:0:0:0:0:0:0:1 - - [12/Dec/2018:00:43:06 +0900] "GET /dbconn/xml/recipe4.jsp HTTP/1.1" 200 5310
0:0:0:0:0:0:0:1 - - [12/Dec/2018:00:43:08 +0900] "GET /dbconn/xml/recipe8.jsp HTTP/1.1" 200 5563
0:0:0:0:0:0:0:1 - - [12/Dec/2018:00:43:38 +0900] "GET /dbconn/xml/recipe8.jsp HTTP/1.1" 200 5562
0:0:0:0:0:0:0:1 - - [12/Dec/2018:00:43:46 +0900] "GET /dbconn/xml/list.jsp HTTP/1.1" 200 3443
0:0:0:0:0:0:0:1 - - [12/Dec/2018:00:43:47 +0900] "GET /dbconn/xml/recipe7.jsp HTTP/1.1" 200 435
0:0:0:0:0:0:0:1 - - [12/Dec/2018:00:44:24 +0900] "GET /dbconn/xml/recipe.jsp HTTP/1.1" 200 435
0:0:0:0:0:0:0:1 - - [12/Dec/2018:00:44:35 +0900] "GET /dbconn/xml/recipe.jsp HTTP/1.1" 500 2826
0:0:0:0:0:0:0:1 - - [12/Dec/2018:00:45:03 +0900] "GET /dbconn/xml/recipe.jsp HTTP/1.1" 200 6246
0:0:0:0:0:0:0:1 - - [12/Dec/2018:00:45:30 +0900] "GET /dbconn/xml/recipe.jsp HTTP/1.1" 200 6246
0:0:0:0:0:0:0:1 - - [12/Dec/2018:00:45:30 +0900] "GET /dbconn/xml/recipe.jsp HTTP/1.1" 200 6246
0:0:0:0:0:0:0:1 - - [12/Dec/2018:00:45:31 +0900] "GET /dbconn/xml/recipe.jsp HTTP/1.1" 200 6246
0:0:0:0:0:0:0:1 - - [12/Dec/2018:00:45:38 +0900] "GET /dbconn/xml/recipe7.jsp HTTP/1.1" 200 6248
0:0:0:0:0:0:0:1 - - [12/Dec/2018:00:45:49 +0900] "GET /dbconn/xml/recipe7.jsp HTTP/1.1" 200 6248
0:0:0:0:0:0:0:1 - - [12/Dec/2018:00:45:50 +0900] "GET /dbconn/xml/recipe.jsp HTTP/1.1" 200 6246
0:0:0:0:0:0:0:1 - - [12/Dec/2018:00:46:05 +0900] "GET /dbconn/xml/list.jsp HTTP/1.1" 200 3443
0:0:0:0:0:0:0:1 - - [12/Dec/2018:00:46:12 +0900] "GET /dbconn/xml/DB_con.jsp HTTP/1.1" 200 2027
0:0:0:0:0:0:0:1 - - [12/Dec/2018:00:49:14 +0900] "GET /dbconn/xml/DB_con2.jsp HTTP/1.1" 500 2956
0:0:0:0:0:0:0:1 - - [12/Dec/2018:00:49:31 +0900] "GET /dbconn/xml/DB_con2.jsp HTTP/1.1" 500 2496
0:0:0:0:0:0:0:1 - - [12/Dec/2018:00:49:32 +0900] "GET /dbconn/xml/DB_con2.jsp HTTP/1.1" 200 6046
0:0:0:0:0:0:0:1 - - [12/Dec/2018:00:49:55 +0900] "GET /dbconn/xml/DB_con2.jsp HTTP/1.1" 500 2496
0:0:0:0:0:0:0:1 - - [12/Dec/2018:00:50:08 +0900] "GET /dbconn/xml/DB_con2.jsp HTTP/1.1" 200 7070
0:0:0:0:0:0:0:1 - - [12/Dec/2018:00:51:45 +0900] "GET /dbconn/xml/DB_con2.jsp HTTP/1.1" 200 7070
0:0:0:0:0:0:0:1 - - [12/Dec/2018:00:51:45 +0900] "GET /dbconn/xml/DB_con2.jsp HTTP/1.1" 200 7070
0:0:0:0:0:0:0:1 - - [12/Dec/2018:00:51:46 +0900] "GET /dbconn/xml/DB_con2.jsp HTTP/1.1" 200 7070
0:0:0:0:0:0:0:1 - - [12/Dec/2018:00:51:46 +0900] "GET /dbconn/xml/DB_con2.jsp HTTP/1.1" 200 7070
0:0:0:0:0:0:0:1 - - [12/Dec/2018:00:54:44 +0900] "GET /dbconn/xml/DB_con2.jsp HTTP/1.1" 200 6997
0:0:0:0:0:0:0:1 - - [12/Dec/2018:00:54:45 +0900] "GET /dbconn/xml/DB_con2.jsp HTTP/1.1" 200 6997
0:0:0:0:0:0:0:1 - - [12/Dec/2018:00:54:56 +0900] "GET /dbconn/xml/DB_con2.jsp HTTP/1.1" 200 6997
0:0:0:0:0:0:0:1 - - [12/Dec/2018:00:54:56 +0900] "GET /dbconn/xml/DB_con2.jsp HTTP/1.1" 200 6997
0:0:0:0:0:0:0:1 - - [12/Dec/2018:00:54:57 +0900] "GET /dbconn/xml/DB_con2.jsp HTTP/1.1" 200 6997
0:0:0:0:0:0:0:1 - - [12/Dec/2018:00:55:28 +0900] "GET /dbconn/xml/DB_con2.jsp HTTP/1.1" 200 6997
0:0:0:0:0:0:0:1 - - [12/Dec/2018:00:55:41 +0900] "GET /dbconn/xml/DB_con2.jsp HTTP/1.1" 200 16244
0:0:0:0:0:0:0:1 - - [12/Dec/2018:00:56:08 +0900] "GET /dbconn/xml/DB_con2.jsp HTTP/1.1" 200 16236
0:0:0:0:0:0:0:1 - - [12/Dec/2018:00:56:26 +0900] "GET /dbconn/xml/DB_con2.jsp HTTP/1.1" 200 16204
0:0:0:0:0:0:0:1 - - [12/Dec/2018:00:56:40 +0900] "GET /dbconn/xml/DB_con2.jsp HTTP/1.1" 200 16196
0:0:0:0:0:0:0:1 - - [12/Dec/2018:00:56:49 +0900] "GET /dbconn/xml/DB_con2.jsp HTTP/1.1" 200 16188
0:0:0:0:0:0:0:1 - - [12/Dec/2018:00:56:59 +0900] "GET /dbconn/xml/DB_con2.jsp HTTP/1.1" 200 16180
0:0:0:0:0:0:0:1 - - [12/Dec/2018:00:57:08 +0900] "GET /dbconn/xml/DB_con2.jsp HTTP/1.1" 200 16180
0:0:0:0:0:0:0:1 - - [12/Dec/2018:09:55:38 +0900] "GET /dbconn/DB_con2.jsp HTTP/1.1" 404 1096
0:0:0:0:0:0:0:1 - - [12/Dec/2018:09:55:44 +0900] "GET /dbconn/xml/DB_con2.jsp HTTP/1.1" 200 16180
0:0:0:0:0:0:0:1 - - [12/Dec/2018:09:55:44 +0900] "GET /favicon.ico HTTP/1.1" 200 21630
0:0:0:0:0:0:0:1 - - [12/Dec/2018:09:56:04 +0900] "GET /dbconn/xml/login.jsp HTTP/1.1" 200 1442
0:0:0:0:0:0:0:1 - - [12/Dec/2018:09:56:48 +0900] "POST /dbconn/xml/compare.jsp HTTP/1.1" 302 -
0:0:0:0:0:0:0:1 - - [12/Dec/2018:09:56:48 +0900] "GET /dbconn/xml/login.jsp HTTP/1.1" 200 1472
0:0:0:0:0:0:0:1 - - [12/Dec/2018:09:56:49 +0900] "GET /dbconn/xml/list.jsp HTTP/1.1" 200 3447
0:0:0:0:0:0:0:1 - - [12/Dec/2018:09:56:57 +0900] "GET /dbconn/xml/recipe5.jsp HTTP/1.1" 200 5415
0:0:0:0:0:0:0:1 - - [12/Dec/2018:16:01:10 +0900] "GET /dbconn/xml/login,jsp HTTP/1.1" 404 1102
0:0:0:0:0:0:0:1 - - [12/Dec/2018:16:01:18 +0900] "GET /dbconn/xml/login.jsp HTTP/1.1" 200 1442
0:0:0:0:0:0:0:1 - - [12/Dec/2018:16:01:18 +0900] "GET /favicon.ico HTTP/1.1" 200 21630
0:0:0:0:0:0:0:1 - - [12/Dec/2018:16:01:25 +0900] "POST /dbconn/xml/compare.jsp HTTP/1.1" 302 -
0:0:0:0:0:0:0:1 - - [12/Dec/2018:16:01:25 +0900] "GET /dbconn/xml/login.jsp HTTP/1.1" 200 1472
0:0:0:0:0:0:0:1 - - [12/Dec/2018:16:01:26 +0900] "GET /dbconn/xml/list.jsp HTTP/1.1" 200 3447
0:0:0:0:0:0:0:1 - - [12/Dec/2018:16:01:28 +0900] "GET /dbconn/xml/recipe1.jsp HTTP/1.1" 200 5422
0:0:0:0:0:0:0:1 - - [12/Dec/2018:16:01:44 +0900] "GET /dbconn/xml/toplist.jsp HTTP/1.1" 200 6222
0:0:0:0:0:0:0:1 - - [12/Dec/2018:16:01:55 +0900] "GET /dbconn/xml/list.jsp HTTP/1.1" 200 3447
0:0:0:0:0:0:0:1 - - [12/Dec/2018:16:02:09 +0900] "GET /dbconn/xml/DB_con2.jsp HTTP/1.1" 200 16180
