0:0:0:0:0:0:0:1 - - [05/Dec/2018:11:30:02 +0900] "GET /dbconn/xml/login.jsp HTTP/1.1" 200 1416
0:0:0:0:0:0:0:1 - - [05/Dec/2018:11:30:02 +0900] "GET /favicon.ico HTTP/1.1" 200 21630
0:0:0:0:0:0:0:1 - - [05/Dec/2018:11:31:42 +0900] "POST /dbconn/xml/compare.jsp HTTP/1.1" 302 -
0:0:0:0:0:0:0:1 - - [05/Dec/2018:11:31:42 +0900] "GET /dbconn/xml/login.jsp HTTP/1.1" 200 1450
0:0:0:0:0:0:0:1 - - [05/Dec/2018:11:31:51 +0900] "GET /dbconn/xml/logining.jsp HTTP/1.1" 200 1079
0:0:0:0:0:0:0:1 - - [05/Dec/2018:11:32:01 +0900] "GET /dbconn/xml/logout.jsp HTTP/1.1" 302 -
0:0:0:0:0:0:0:1 - - [05/Dec/2018:11:32:01 +0900] "GET /dbconn/xml/login.jsp HTTP/1.1" 200 1416
0:0:0:0:0:0:0:1 - - [05/Dec/2018:11:32:06 +0900] "POST /dbconn/xml/compare.jsp HTTP/1.1" 302 -
0:0:0:0:0:0:0:1 - - [05/Dec/2018:11:32:06 +0900] "GET /dbconn/xml/login.jsp HTTP/1.1" 200 1450
0:0:0:0:0:0:0:1 - - [05/Dec/2018:11:32:18 +0900] "GET /dbconn/xml/logining.jsp HTTP/1.1" 200 1079
0:0:0:0:0:0:0:1 - - [05/Dec/2018:11:32:19 +0900] "GET /dbconn/xml/logout.jsp HTTP/1.1" 302 -
0:0:0:0:0:0:0:1 - - [05/Dec/2018:11:32:19 +0900] "GET /dbconn/xml/login.jsp HTTP/1.1" 200 1416
0:0:0:0:0:0:0:1 - - [05/Dec/2018:11:32:21 +0900] "POST /dbconn/xml/compare.jsp HTTP/1.1" 200 225
0:0:0:0:0:0:0:1 - - [05/Dec/2018:11:32:23 +0900] "GET /dbconn/xml/login.jsp HTTP/1.1" 200 1416
0:0:0:0:0:0:0:1 - - [05/Dec/2018:11:33:09 +0900] "GET /dbconn/xml/login.jsp HTTP/1.1" 200 1416
0:0:0:0:0:0:0:1 - - [05/Dec/2018:11:33:13 +0900] "POST /dbconn/xml/compare.jsp HTTP/1.1" 302 -
0:0:0:0:0:0:0:1 - - [05/Dec/2018:11:33:13 +0900] "GET /dbconn/xml/logining.jsp HTTP/1.1" 200 1079
0:0:0:0:0:0:0:1 - - [05/Dec/2018:11:33:16 +0900] "GET /dbconn/xml/logout.jsp HTTP/1.1" 302 -
0:0:0:0:0:0:0:1 - - [05/Dec/2018:11:33:16 +0900] "GET /dbconn/xml/login.jsp HTTP/1.1" 200 1416
0:0:0:0:0:0:0:1 - - [05/Dec/2018:11:33:27 +0900] "GET /dbconn/xml/login.jsp HTTP/1.1" 200 1416
0:0:0:0:0:0:0:1 - - [05/Dec/2018:11:33:30 +0900] "POST /dbconn/xml/compare.jsp HTTP/1.1" 302 -
0:0:0:0:0:0:0:1 - - [05/Dec/2018:11:33:30 +0900] "GET /dbconn/xml/login.jsp HTTP/1.1" 200 1450
0:0:0:0:0:0:0:1 - - [05/Dec/2018:11:33:33 +0900] "GET /dbconn/xml/logining.jsp HTTP/1.1" 200 1079
0:0:0:0:0:0:0:1 - - [05/Dec/2018:11:36:44 +0900] "GET /dbconn/xml/list.jsp HTTP/1.1" 200 2973
0:0:0:0:0:0:0:1 - - [05/Dec/2018:11:36:45 +0900] "GET /dbconn/xml/recipe1.jsp HTTP/1.1" 200 4237
0:0:0:0:0:0:0:1 - - [05/Dec/2018:11:41:45 +0900] "GET /dbconn/xml/list.jsp HTTP/1.1" 200 2973
0:0:0:0:0:0:0:1 - - [05/Dec/2018:11:41:46 +0900] "GET /dbconn/xml/recipe1.jsp HTTP/1.1" 200 4237
0:0:0:0:0:0:0:1 - - [05/Dec/2018:11:42:57 +0900] "GET /dbconn/xml/recipe1.jsp HTTP/1.1" 200 4243
0:0:0:0:0:0:0:1 - - [05/Dec/2018:11:54:18 +0900] "GET /dbconn/xml/recipe1.jsp HTTP/1.1" 200 4243
