0:0:0:0:0:0:0:1 - - [14/Dec/2018:17:10:03 +0900] "-" 400 2269
0:0:0:0:0:0:0:1 - - [14/Dec/2018:17:10:03 +0900] "-" 400 2269
0:0:0:0:0:0:0:1 - - [14/Dec/2018:17:12:56 +0900] "GET /dbconn/xml/DB_con.jsp HTTP/1.1" 200 16051
0:0:0:0:0:0:0:1 - - [14/Dec/2018:17:12:56 +0900] "GET /favicon.ico HTTP/1.1" 200 21630
0:0:0:0:0:0:0:1 - - [14/Dec/2018:17:13:31 +0900] "GET /dbconn/xml/logining.jsp HTTP/1.1" 200 1075
0:0:0:0:0:0:0:1 - - [14/Dec/2018:17:14:13 +0900] "GET /dbconn/xml/list.jsp HTTP/1.1" 200 3443
0:0:0:0:0:0:0:1 - - [14/Dec/2018:17:14:14 +0900] "GET /dbconn/xml/recipe6.jsp HTTP/1.1" 200 5442
0:0:0:0:0:0:0:1 - - [14/Dec/2018:17:14:17 +0900] "GET /dbconn/xml/toplist.jsp HTTP/1.1" 200 6222
0:0:0:0:0:0:0:1 - - [14/Dec/2018:17:14:19 +0900] "GET /dbconn/xml/list.jsp HTTP/1.1" 200 3443
0:0:0:0:0:0:0:1 - - [14/Dec/2018:17:14:20 +0900] "GET /dbconn/xml/toplist.jsp HTTP/1.1" 200 6222
0:0:0:0:0:0:0:1 - - [14/Dec/2018:17:14:23 +0900] "GET /dbconn/xml/list.jsp HTTP/1.1" 200 3443
0:0:0:0:0:0:0:1 - - [14/Dec/2018:17:14:26 +0900] "GET /dbconn/xml/DB_con.jsp HTTP/1.1" 200 16051
0:0:0:0:0:0:0:1 - - [14/Dec/2018:17:21:22 +0900] "GET /dbconn/xml/DB_con.jsp HTTP/1.1" 200 16405
0:0:0:0:0:0:0:1 - - [14/Dec/2018:17:27:24 +0900] "GET /dbconn/xml/logining.jsp HTTP/1.1" 500 5261
0:0:0:0:0:0:0:1 - - [14/Dec/2018:17:27:59 +0900] "GET /dbconn/xml/logining.jsp HTTP/1.1" 200 1277
0:0:0:0:0:0:0:1 - - [14/Dec/2018:17:28:01 +0900] "GET /dbconn/xml/list.jsp HTTP/1.1" 200 3443
0:0:0:0:0:0:0:1 - - [14/Dec/2018:17:28:08 +0900] "GET /dbconn/xml/DB_con.jsp HTTP/1.1" 200 16405
0:0:0:0:0:0:0:1 - - [14/Dec/2018:17:28:33 +0900] "GET /dbconn/xml/login.jsp HTTP/1.1" 200 1442
0:0:0:0:0:0:0:1 - - [14/Dec/2018:17:28:38 +0900] "POST /dbconn/xml/compare.jsp HTTP/1.1" 302 -
0:0:0:0:0:0:0:1 - - [14/Dec/2018:17:28:38 +0900] "GET /dbconn/xml/login.jsp HTTP/1.1" 200 1472
0:0:0:0:0:0:0:1 - - [14/Dec/2018:17:28:39 +0900] "GET /dbconn/xml/list.jsp HTTP/1.1" 200 3447
0:0:0:0:0:0:0:1 - - [14/Dec/2018:17:29:05 +0900] "GET /dbconn/xml/logout.jsp HTTP/1.1" 302 -
0:0:0:0:0:0:0:1 - - [14/Dec/2018:17:29:05 +0900] "GET /dbconn/xml/login.jsp HTTP/1.1" 200 1442
0:0:0:0:0:0:0:1 - - [14/Dec/2018:17:29:08 +0900] "POST /dbconn/xml/compare.jsp HTTP/1.1" 302 -
0:0:0:0:0:0:0:1 - - [14/Dec/2018:17:29:08 +0900] "GET /dbconn/xml/login.jsp HTTP/1.1" 200 1476
0:0:0:0:0:0:0:1 - - [14/Dec/2018:17:29:09 +0900] "GET /dbconn/xml/logining.jsp HTTP/1.1" 200 1281
0:0:0:0:0:0:0:1 - - [14/Dec/2018:17:29:16 +0900] "GET /dbconn/xml/list.jsp HTTP/1.1" 200 3447
0:0:0:0:0:0:0:1 - - [14/Dec/2018:17:29:19 +0900] "GET /dbconn/xml/logout.jsp HTTP/1.1" 302 -
0:0:0:0:0:0:0:1 - - [14/Dec/2018:17:29:19 +0900] "GET /dbconn/xml/login.jsp HTTP/1.1" 200 1442
0:0:0:0:0:0:0:1 - - [14/Dec/2018:17:30:43 +0900] "GET /dbconn/xml/logout.jsp HTTP/1.1" 302 -
0:0:0:0:0:0:0:1 - - [14/Dec/2018:17:30:43 +0900] "GET /dbconn/xml/login.jsp HTTP/1.1" 200 1442
0:0:0:0:0:0:0:1 - - [14/Dec/2018:17:30:47 +0900] "POST /dbconn/xml/compare.jsp HTTP/1.1" 200 116
0:0:0:0:0:0:0:1 - - [14/Dec/2018:17:30:56 +0900] "POST /dbconn/xml/compare.jsp HTTP/1.1" 200 116
0:0:0:0:0:0:0:1 - - [14/Dec/2018:17:30:59 +0900] "POST /dbconn/xml/compare.jsp HTTP/1.1" 200 116
0:0:0:0:0:0:0:1 - - [14/Dec/2018:17:31:34 +0900] "GET /dbconn/xml/login.jsp HTTP/1.1" 200 1678
0:0:0:0:0:0:0:1 - - [14/Dec/2018:17:31:41 +0900] "POST /dbconn/xml/compare.jsp HTTP/1.1" 200 116
0:0:0:0:0:0:0:1 - - [14/Dec/2018:17:32:11 +0900] "POST /dbconn/xml/compare.jsp HTTP/1.1" 200 116
0:0:0:0:0:0:0:1 - - [14/Dec/2018:17:32:16 +0900] "POST /dbconn/xml/compare.jsp HTTP/1.1" 200 116
0:0:0:0:0:0:0:1 - - [14/Dec/2018:17:33:05 +0900] "GET /dbconn/xml/login.jsp HTTP/1.1" 200 1678
0:0:0:0:0:0:0:1 - - [14/Dec/2018:17:33:10 +0900] "POST /dbconn/xml/compare.jsp HTTP/1.1" 200 116
0:0:0:0:0:0:0:1 - - [14/Dec/2018:17:36:18 +0900] "POST /dbconn/xml/compare.jsp HTTP/1.1" 302 -
0:0:0:0:0:0:0:1 - - [14/Dec/2018:17:36:18 +0900] "GET /dbconn/xml/login.jsp HTTP/1.1" 200 1712
0:0:0:0:0:0:0:1 - - [14/Dec/2018:17:36:19 +0900] "GET /dbconn/xml/logining.jsp HTTP/1.1" 200 1289
0:0:0:0:0:0:0:1 - - [14/Dec/2018:17:36:24 +0900] "GET /dbconn/xml/logining.jsp HTTP/1.1" 200 1289
0:0:0:0:0:0:0:1 - - [14/Dec/2018:17:36:25 +0900] "GET /dbconn/xml/logout.jsp HTTP/1.1" 302 -
0:0:0:0:0:0:0:1 - - [14/Dec/2018:17:36:25 +0900] "GET /dbconn/xml/login.jsp HTTP/1.1" 200 1678
0:0:0:0:0:0:0:1 - - [14/Dec/2018:17:36:43 +0900] "GET /dbconn/xml/DB_con.jsp HTTP/1.1" 200 16405
0:0:0:0:0:0:0:1 - - [14/Dec/2018:17:36:58 +0900] "POST /dbconn/xml/compare.jsp HTTP/1.1" 200 225
0:0:0:0:0:0:0:1 - - [14/Dec/2018:17:37:02 +0900] "GET /dbconn/xml/login.jsp HTTP/1.1" 200 1678
0:0:0:0:0:0:0:1 - - [14/Dec/2018:17:37:14 +0900] "POST /dbconn/xml/compare.jsp HTTP/1.1" 302 -
0:0:0:0:0:0:0:1 - - [14/Dec/2018:17:37:14 +0900] "GET /dbconn/xml/login.jsp HTTP/1.1" 200 1712
0:0:0:0:0:0:0:1 - - [14/Dec/2018:17:37:15 +0900] "GET /dbconn/xml/logining.jsp HTTP/1.1" 200 1278
0:0:0:0:0:0:0:1 - - [14/Dec/2018:17:37:25 +0900] "GET /dbconn/xml/list.jsp HTTP/1.1" 200 3444
0:0:0:0:0:0:0:1 - - [14/Dec/2018:17:38:00 +0900] "GET /dbconn/xml/logining.jsp HTTP/1.1" 200 1278
0:0:0:0:0:0:0:1 - - [14/Dec/2018:17:38:01 +0900] "GET /dbconn/xml/list.jsp HTTP/1.1" 200 3444
0:0:0:0:0:0:0:1 - - [14/Dec/2018:17:38:04 +0900] "GET /dbconn/xml/list.jsp HTTP/1.1" 200 3444
0:0:0:0:0:0:0:1 - - [14/Dec/2018:17:38:16 +0900] "GET /dbconn/xml/logining.jsp HTTP/1.1" 200 1286
0:0:0:0:0:0:0:1 - - [14/Dec/2018:17:38:32 +0900] "GET /dbconn/xml/list.jsp HTTP/1.1" 200 3444
0:0:0:0:0:0:0:1 - - [14/Dec/2018:17:38:56 +0900] "GET /dbconn/xml/logining.jsp HTTP/1.1" 200 888
0:0:0:0:0:0:0:1 - - [14/Dec/2018:17:38:58 +0900] "GET /dbconn/xml/list.jsp HTTP/1.1" 200 3444
0:0:0:0:0:0:0:1 - - [14/Dec/2018:17:38:59 +0900] "GET /dbconn/xml/recipe3.jsp HTTP/1.1" 200 6010
0:0:0:0:0:0:0:1 - - [14/Dec/2018:17:39:10 +0900] "GET /dbconn/xml/list.jsp HTTP/1.1" 200 3444
0:0:0:0:0:0:0:1 - - [14/Dec/2018:17:39:12 +0900] "GET /dbconn/xml/toplist.jsp HTTP/1.1" 200 6222
0:0:0:0:0:0:0:1 - - [14/Dec/2018:17:39:14 +0900] "GET /dbconn/xml/list.jsp HTTP/1.1" 200 3444
0:0:0:0:0:0:0:1 - - [14/Dec/2018:17:39:15 +0900] "GET /dbconn/xml/recipe6.jsp HTTP/1.1" 200 5442
0:0:0:0:0:0:0:1 - - [14/Dec/2018:17:39:36 +0900] "GET /dbconn/xml/list.jsp HTTP/1.1" 200 3360
0:0:0:0:0:0:0:1 - - [14/Dec/2018:17:39:53 +0900] "GET /dbconn/xml/login.jsp HTTP/1.1" 200 1712
0:0:0:0:0:0:0:1 - - [14/Dec/2018:17:39:55 +0900] "GET /dbconn/xml/logining.jsp HTTP/1.1" 200 888
0:0:0:0:0:0:0:1 - - [14/Dec/2018:17:39:56 +0900] "GET /dbconn/xml/list.jsp HTTP/1.1" 200 3360
0:0:0:0:0:0:0:1 - - [14/Dec/2018:17:39:57 +0900] "GET /dbconn/xml/logout.jsp HTTP/1.1" 302 -
0:0:0:0:0:0:0:1 - - [14/Dec/2018:17:39:57 +0900] "GET /dbconn/xml/login.jsp HTTP/1.1" 200 1678
0:0:0:0:0:0:0:1 - - [14/Dec/2018:17:40:05 +0900] "GET /dbconn/xml/newsignup.html HTTP/1.1" 200 1906
0:0:0:0:0:0:0:1 - - [14/Dec/2018:17:40:48 +0900] "POST /dbconn/xml/compare.jsp HTTP/1.1" 302 -
0:0:0:0:0:0:0:1 - - [14/Dec/2018:17:40:48 +0900] "GET /dbconn/xml/login.jsp HTTP/1.1" 200 1712
0:0:0:0:0:0:0:1 - - [14/Dec/2018:17:40:49 +0900] "GET /dbconn/xml/logining.jsp HTTP/1.1" 200 1289
0:0:0:0:0:0:0:1 - - [14/Dec/2018:17:43:12 +0900] "GET /dbconn/xml/logout.jsp HTTP/1.1" 302 -
0:0:0:0:0:0:0:1 - - [14/Dec/2018:17:43:12 +0900] "GET /dbconn/xml/login.jsp HTTP/1.1" 200 1678
0:0:0:0:0:0:0:1 - - [14/Dec/2018:17:43:26 +0900] "GET /dbconn/xml/DB_con.jsp HTTP/1.1" 200 16405
0:0:0:0:0:0:0:1 - - [14/Dec/2018:17:43:40 +0900] "POST /dbconn/xml/compare.jsp HTTP/1.1" 302 -
0:0:0:0:0:0:0:1 - - [14/Dec/2018:17:43:40 +0900] "GET /dbconn/xml/login.jsp HTTP/1.1" 200 1712
0:0:0:0:0:0:0:1 - - [14/Dec/2018:17:43:41 +0900] "GET /dbconn/xml/logining.jsp HTTP/1.1" 200 888
0:0:0:0:0:0:0:1 - - [14/Dec/2018:17:44:04 +0900] "GET /dbconn/xml/list.jsp HTTP/1.1" 200 3360
0:0:0:0:0:0:0:1 - - [14/Dec/2018:17:44:06 +0900] "GET /dbconn/xml/logout.jsp HTTP/1.1" 302 -
0:0:0:0:0:0:0:1 - - [14/Dec/2018:17:44:06 +0900] "GET /dbconn/xml/login.jsp HTTP/1.1" 200 1678
0:0:0:0:0:0:0:1 - - [14/Dec/2018:17:44:08 +0900] "GET /dbconn/xml/findpa.jsp HTTP/1.1" 200 2174
0:0:0:0:0:0:0:1 - - [14/Dec/2018:17:44:10 +0900] "GET /dbconn/xml/login.jsp HTTP/1.1" 200 1678
0:0:0:0:0:0:0:1 - - [14/Dec/2018:17:44:12 +0900] "GET /dbconn/xml/newsignup.html HTTP/1.1" 304 -
0:0:0:0:0:0:0:1 - - [14/Dec/2018:17:44:40 +0900] "POST /dbconn/xml/compare.jsp HTTP/1.1" 200 225
0:0:0:0:0:0:0:1 - - [14/Dec/2018:17:44:42 +0900] "GET /dbconn/xml/login.jsp HTTP/1.1" 200 1678
0:0:0:0:0:0:0:1 - - [14/Dec/2018:17:44:47 +0900] "POST /dbconn/xml/compare.jsp HTTP/1.1" 302 -
0:0:0:0:0:0:0:1 - - [14/Dec/2018:17:44:47 +0900] "GET /dbconn/xml/login.jsp HTTP/1.1" 200 1712
0:0:0:0:0:0:0:1 - - [14/Dec/2018:17:44:48 +0900] "GET /dbconn/xml/logining.jsp HTTP/1.1" 200 1289
0:0:0:0:0:0:0:1 - - [14/Dec/2018:17:44:49 +0900] "GET /dbconn/xml/DB_con.jsp HTTP/1.1" 200 16405
0:0:0:0:0:0:0:1 - - [14/Dec/2018:17:45:49 +0900] "GET /dbconn/xml/DB_con.jsp HTTP/1.1" 200 16405
0:0:0:0:0:0:0:1 - - [14/Dec/2018:17:48:03 +0900] "GET /dbconn/xml/DB_con.jsp HTTP/1.1" 200 16405
0:0:0:0:0:0:0:1 - - [14/Dec/2018:17:48:17 +0900] "GET /dbconn/xml/DB_con.jsp HTTP/1.1" 200 16418
0:0:0:0:0:0:0:1 - - [14/Dec/2018:17:48:30 +0900] "GET /dbconn/xml/DB_con.jsp HTTP/1.1" 200 16418
0:0:0:0:0:0:0:1 - - [14/Dec/2018:18:57:28 +0900] "GET /dbconn/xml/toplist.jsp HTTP/1.1" 200 6222
0:0:0:0:0:0:0:1 - - [14/Dec/2018:18:57:31 +0900] "GET /dbconn/xml/list.jsp HTTP/1.1" 200 3359
