키워드,러시아월드컵_후_빈도수
한국,178
경기,164
첫,112
월드컵,98
기사,92
스웨덴,88
러시아,74
년,66
시간,62
추천,60
페널티킥,58
선수,56
니즈,54
분,54
메시,54
후,50
축구,46
그,46
전,44
일,42
것,40
후반,38
아이슬란드,38
동아닷컴,36
기록,36
무승부,36
뉴스,36
감독,36
판독,34
러시아월드컵,34
기성용,34
승,34
모두,34
멕시코,34
독일,34
비디오,32
조,32
이,32
관련,32
충격,32
튀니지,32
정상,32
뭐,32
하루,32
월급,32
비스트,30
상황,30
케인,30
장골,30
잉글랜드,30
