,날짜,저가,거래량,전일비,고가
0,2018.06.19,46500,8922718,450,47350
1,2018.06.18,46200,16661870,1050,47650
2,2018.06.15,47650,17080892,550,48700
3,2018.06.14,48200,20971729,1200,49000
4,2018.06.12,49250,12110569,500,49800
5,2018.06.11,49350,10571312,250,50300
6,2018.06.08,49600,16951706,950,50400
7,2018.06.07,50500,13590016,700,51800
8,2018.06.05,50400,9144100,200,51400
9,2018.06.04,50700,9767171,200,51200
10,2018.06.01,49950,13038499,600,51700
11,2018.05.31,49850,63491109,1200,50800
12,2018.05.30,49100,20498098,1800,51500
13,2018.05.29,51300,8480437,1000,52500
14,2018.05.28,52000,9787820,400,53000
15,2018.05.25,50800,15207266,1300,52800
16,2018.05.24,51100,8289275,400,52000
17,2018.05.23,50400,17095490,1800,52000
18,2018.05.21,49100,9020998,500,50200
19,2018.05.18,49350,6706570,100,49900
20,2018.05.17,49400,10365440,450,50500
21,2018.05.16,49150,15918683,650,50200
22,2018.05.15,49100,18709146,900,50400
23,2018.05.14,49900,14909272,1200,51100
24,2018.05.11,51200,10314997,300,52200
25,2018.05.10,50600,13905263,700,51700
26,2018.05.09,50900,16128305,1700,52800
27,2018.05.08,51900,23104720,700,53200
28,2018.05.04,51800,39565391,1100,53900
29,2018.05.03,0,0,0,0
30,2018.05.02,0,0,0,0
31,2018.04.30,0,0,0,0
32,2018.04.27,2622000,606216,43000,2682000
33,2018.04.26,2520000,360931,87000,2608000
34,2018.04.25,2461000,332292,3000,2525000
35,2018.04.24,2504000,315406,72000,2593000
36,2018.04.23,2550000,232380,14000,2604000
37,2018.04.20,2571000,235220,58000,2613000
38,2018.04.19,2577000,343811,71000,2649000
39,2018.04.18,2529000,269252,69000,2568000
40,2018.04.17,2491000,155440,18000,2527000
41,2018.04.16,2493000,157549,27000,2530000
42,2018.04.13,2470000,205566,40000,2509000
43,2018.04.12,2444000,249325,7000,2472000
44,2018.04.11,2430000,201022,1000,2495000
45,2018.04.10,2402000,219687,16000,2461000
46,2018.04.09,2410000,199008,40000,2472000
47,2018.04.06,2370000,250654,17000,2429000
48,2018.04.05,2367000,264912,91000,2469000
49,2018.04.04,2346000,247684,60000,2413000
50,2018.04.03,2364000,255365,21000,2407000
51,2018.04.02,2425000,142313,34000,2461000
52,2018.03.30,2454000,155542,9000,2495000
53,2018.03.29,2416000,201340,17000,2478000
54,2018.03.28,2417000,303189,64000,2455000
55,2018.03.27,2454000,237480,15000,2523000
56,2018.03.26,2452000,201155,28000,2514000
57,2018.03.23,2480000,297099,103000,2536000
58,2018.03.22,2552000,169082,36000,2589000
59,2018.03.21,2553000,178104,7000,2589000
60,2018.03.20,2505000,163865,23000,2560000
61,2018.03.19,2522000,164377,20000,2567000
62,2018.03.16,2512000,243698,20000,2571000
63,2018.03.15,2551000,177649,11000,2601000
64,2018.03.14,2550000,254265,5000,2600000
65,2018.03.13,2518000,401974,96000,2583000
66,2018.03.12,2479000,173779,0,2539000
67,2018.03.09,2462000,286088,27000,2527000
68,2018.03.08,2404000,389273,29000,2474000
69,2018.03.07,2361000,428541,80000,2445000
70,2018.03.06,2291000,308467,91000,2355000
71,2018.03.05,2254000,282019,41000,2308000
72,2018.03.02,2300000,265310,52000,2340000
73,2018.02.28,2350000,303247,16000,2405000
74,2018.02.27,2369000,196611,0,2419000
75,2018.02.26,2354000,191213,8000,2378000
76,2018.02.23,2338000,248466,23000,2390000
77,2018.02.22,2338000,177399,26000,2363000
78,2018.02.21,2342000,257604,6000,2379000
79,2018.02.20,2361000,202452,49000,2408000
80,2018.02.19,2393000,307069,31000,2490000
81,2018.02.14,2397000,378118,73000,2455000
82,2018.02.13,2310000,378465,91000,2403000
83,2018.02.12,2252000,315099,51000,2316000
84,2018.02.09,2221000,349300,65000,2259000
85,2018.02.08,2299000,465021,10000,2331000
86,2018.02.07,2290000,468961,81000,2413000
87,2018.02.06,2329000,388129,25000,2396000
88,2018.02.05,2300000,567158,11000,2416000
89,2018.02.02,2385000,585207,106000,2470000
90,2018.02.01,2486000,552189,4000,2548000
91,2018.01.31,2480000,1293626,5000,2707000
92,2018.01.30,2489000,245691,71000,2532000
93,2018.01.29,2545000,236776,22000,2574000
94,2018.01.26,2492000,207002,26000,2539000
95,2018.01.25,2458000,223207,46000,2518000
96,2018.01.24,2428000,191010,9000,2485000
97,2018.01.23,2415000,270654,46000,2458000
98,2018.01.22,2398000,250418,54000,2434000
99,2018.01.19,2452000,184399,29000,2519000
