주요단어,뉴스_남북정상회담 전,뉴스_남북정상회담 후,뉴스_남북정상회담,뉴스_북한,뉴스_김정은,뉴스_통일
개최,65.0,146.0,99.0,0.0,55.0,85.0
경원선,52.0,0.0,0.0,0.0,0.0,0.0
경의선,58.0,0.0,0.0,0.0,0.0,0.0
경제,0.0,53.0,0.0,183.0,49.0,92.0
계리,0.0,0.0,0.0,138.0,0.0,0.0
고위,0.0,0.0,0.0,56.0,0.0,0.0
공동,0.0,101.0,0.0,0.0,0.0,0.0
공사,168.0,0.0,0.0,89.0,0.0,0.0
공연,0.0,0.0,128.0,0.0,0.0,0.0
관계,171.0,42.0,50.0,0.0,0.0,0.0
관심,0.0,0.0,52.0,0.0,0.0,0.0
교류,0.0,0.0,0.0,0.0,0.0,66.0
국무위원,58.0,0.0,49.0,88.0,661.0,53.0
국민,0.0,43.0,0.0,0.0,0.0,0.0
국정원,0.0,0.0,0.0,0.0,0.0,59.0
국회,82.0,0.0,0.0,0.0,0.0,0.0
국회의원,154.0,0.0,0.0,59.0,0.0,0.0
그림,169.0,97.0,249.0,0.0,0.0,0.0
금융,0.0,0.0,0.0,0.0,0.0,55.0
금지,0.0,0.0,213.0,0.0,0.0,0.0
기자,124.0,114.0,193.0,115.0,82.0,61.0
기획,0.0,0.0,0.0,72.0,0.0,0.0
길목,97.0,0.0,245.0,0.0,0.0,0.0
김정은,122.0,90.0,82.0,144.0,1467.0,105.0
남북,342.0,176.0,228.0,70.0,49.0,348.0
남북정상회담,872.0,0.0,1030.0,0.0,83.0,138.0
남북정상회담 후,0.0,977.0,0.0,0.0,0.0,0.0
높이,0.0,0.0,0.0,0.0,0.0,64.0
뉴스,0.0,0.0,0.0,69.0,0.0,0.0
당시,0.0,0.0,50.0,0.0,0.0,0.0
대통령,217.0,505.0,317.0,216.0,688.0,109.0
대표,53.0,39.0,55.0,0.0,0.0,0.0
대한,0.0,0.0,0.0,78.0,0.0,0.0
대화,0.0,0.0,0.0,0.0,79.0,0.0
도널드,0.0,0.0,0.0,0.0,208.0,0.0
때제,0.0,0.0,0.0,0.0,0.0,59.0
만남,0.0,0.0,0.0,0.0,54.0,0.0
만찬,0.0,0.0,91.0,0.0,0.0,0.0
무단,0.0,0.0,235.0,0.0,0.0,0.0
문재인,79.0,169.0,155.0,101.0,137.0,0.0
미국,0.0,56.0,87.0,273.0,322.0,0.0
미국인,0.0,0.0,0.0,64.0,0.0,0.0
미래,0.0,0.0,0.0,0.0,50.0,0.0
민간,0.0,0.0,0.0,68.0,0.0,0.0
민병,0.0,0.0,0.0,0.0,0.0,49.0
민주당,60.0,0.0,0.0,0.0,0.0,0.0
및재,0.0,0.0,215.0,0.0,0.0,0.0
발표,0.0,42.0,0.0,0.0,0.0,0.0
배포,0.0,0.0,217.0,0.0,0.0,0.0
번영,0.0,0.0,0.0,0.0,63.0,53.0
변호사,0.0,0.0,0.0,56.0,0.0,0.0
보좌,0.0,0.0,0.0,83.0,0.0,0.0
복제,0.0,0.0,230.0,0.0,0.0,0.0
부대,0.0,0.0,0.0,0.0,0.0,54.0
북미,252.0,221.0,210.0,92.0,276.0,83.0
북한,438.0,174.0,193.0,1901.0,905.0,428.0
브리핑,0.0,0.0,0.0,0.0,0.0,53.0
비핵화,0.0,126.0,67.0,326.0,142.0,0.0
사진,0.0,0.0,71.0,0.0,60.0,0.0
사항,75.0,0.0,0.0,0.0,0.0,85.0
서울,136.0,0.0,0.0,88.0,0.0,84.0
석방,0.0,0.0,0.0,61.0,0.0,0.0
선언,0.0,130.0,85.0,0.0,0.0,65.0
성공,71.0,87.0,0.0,0.0,0.0,53.0
세계,117.0,0.0,0.0,0.0,0.0,0.0
시간,0.0,0.0,0.0,0.0,62.0,113.0
시대,0.0,0.0,0.0,0.0,0.0,60.0
식당,0.0,0.0,0.0,97.0,0.0,0.0
심재철,60.0,0.0,0.0,0.0,0.0,0.0
싱가포르,0.0,0.0,65.0,0.0,374.0,0.0
썰전,0.0,63.0,0.0,0.0,0.0,0.0
앵커,0.0,0.0,0.0,70.0,0.0,0.0
억류,0.0,0.0,0.0,67.0,0.0,0.0
여의도,74.0,0.0,0.0,0.0,0.0,0.0
역사,0.0,0.0,0.0,0.0,97.0,0.0
연구원,0.0,0.0,0.0,0.0,0.0,68.0
연합뉴스,0.0,0.0,0.0,56.0,51.0,0.0
영국,118.0,0.0,0.0,82.0,0.0,0.0
영호,154.0,0.0,0.0,100.0,0.0,0.0
오연,0.0,0.0,54.0,0.0,0.0,0.0
오찬,0.0,0.0,47.0,0.0,0.0,0.0
우리,0.0,0.0,0.0,0.0,0.0,57.0
위원,0.0,0.0,0.0,0.0,109.0,75.0
위원장,0.0,0.0,0.0,0.0,276.0,48.0
위해,0.0,0.0,0.0,0.0,77.0,0.0
의원,67.0,0.0,0.0,0.0,0.0,0.0
이번,54.0,0.0,0.0,0.0,0.0,62.0
이후,254.0,197.0,340.0,0.0,0.0,53.0
인스타그램,165.0,93.0,248.0,0.0,0.0,0.0
일본,0.0,145.0,0.0,0.0,52.0,0.0
일오,104.0,0.0,0.0,0.0,0.0,0.0
자유,89.0,0.0,0.0,0.0,0.0,0.0
장관,0.0,68.0,0.0,63.0,157.0,101.0
장소,0.0,0.0,57.0,0.0,94.0,0.0
전망,159.0,0.0,0.0,0.0,0.0,0.0
전문가,123.0,0.0,0.0,67.0,0.0,0.0
전용기,0.0,0.0,0.0,0.0,47.0,0.0
정례,0.0,0.0,0.0,0.0,0.0,59.0
정부,0.0,52.0,0.0,0.0,0.0,81.0
정상,0.0,250.0,72.0,0.0,62.0,0.0
정상회담,431.0,296.0,238.0,138.0,335.0,84.0
정착,0.0,43.0,0.0,0.0,0.0,0.0
종업원,0.0,0.0,0.0,126.0,0.0,79.0
주재,116.0,0.0,0.0,105.0,0.0,0.0
중국,0.0,87.0,0.0,146.0,89.0,0.0
지난,0.0,102.0,67.0,0.0,74.0,0.0
지난달,84.0,90.0,119.0,0.0,48.0,0.0
지방선거,51.0,0.0,0.0,0.0,0.0,0.0
지역,0.0,0.0,0.0,0.0,0.0,56.0
직후,0.0,0.0,52.0,0.0,0.0,0.0
처음,0.0,73.0,0.0,0.0,0.0,0.0
청와대,0.0,68.0,83.0,74.0,74.0,0.0
초청강연,105.0,0.0,0.0,0.0,0.0,0.0
총리,0.0,74.0,0.0,0.0,63.0,0.0
최근,0.0,59.0,53.0,0.0,0.0,55.0
취임,0.0,157.0,0.0,0.0,0.0,0.0
탈북,0.0,0.0,0.0,104.0,0.0,73.0
통일,78.0,0.0,0.0,71.0,0.0,1420.0
통해,0.0,0.0,0.0,0.0,57.0,0.0
통화,0.0,62.0,0.0,0.0,67.0,0.0
투자,0.0,0.0,0.0,74.0,0.0,0.0
트럼프,0.0,83.0,134.0,67.0,577.0,0.0
트위터,0.0,0.0,0.0,0.0,54.0,0.0
판문점,72.0,237.0,223.0,0.0,71.0,68.0
펀딩,165.0,97.0,248.0,0.0,0.0,0.0
평양,0.0,52.0,73.0,0.0,67.0,0.0
평화,209.0,273.0,397.0,0.0,153.0,252.0
폐기,0.0,0.0,0.0,187.0,0.0,0.0
폼페이,0.0,0.0,0.0,93.0,198.0,0.0
하나,130.0,0.0,0.0,0.0,0.0,164.0
한국,109.0,113.0,55.0,110.0,59.0,107.0
한반도,158.0,184.0,133.0,63.0,74.0,170.0
한중일,0.0,73.0,0.0,0.0,0.0,0.0
한효주,165.0,93.0,248.0,0.0,0.0,0.0
해외,0.0,0.0,0.0,61.0,0.0,0.0
핵무기,0.0,0.0,0.0,59.0,0.0,0.0
핵실험,0.0,0.0,0.0,232.0,0.0,0.0
행사,0.0,0.0,0.0,0.0,0.0,63.0
현지,0.0,0.0,0.0,0.0,53.0,0.0
협력,0.0,75.0,61.0,0.0,0.0,47.0
협상,0.0,0.0,0.0,0.0,46.0,0.0
협의,0.0,0.0,0.0,0.0,0.0,69.0
회관,147.0,0.0,0.0,55.0,0.0,0.0
회담,0.0,136.0,85.0,0.0,247.0,58.0
회의,0.0,160.0,0.0,56.0,0.0,47.0
