COUNTY,NUMBER
path201,28
path203,15
path205,61
path207,42
path209,38
path211,51
path213,67
path215,31
path217,28
path219,29
path221,22
path223,37
path225,40
path227,40
path229,32
path231,36
path233,30
path235,44
