,키워드,빈도수
0,남북정상회담,15442
1,평화,3929
2,대통령,2167
3,성공,1791
4,뉴스,1723
5,문재인,1674
6,김정은,1643
7,판문점,1588
8,남북,1586
9,개최,1438
10,선언,1430
11,한국,1304
12,행사,1254
13,한반도,1192
14,기원,1154
15,대회,1151
16,걷기,1136
17,북한,1052
18,통일,1047
19,홍준표,1006
20,정상회담,1003
21,회담,919
22,역사,907
23,일,849
24,비핵화,791
25,트럼프,738
26,만찬,719
27,선언문,678
28,님,665
29,오늘,657
30,공유,645
31,다음,608
32,국민,605
33,년,589
34,및,574
35,북미,562
36,정상,558
37,쇼,553
38,조국,550
39,우리,535
40,자유,534
41,출처,533
42,재,527
43,영상,492
44,전쟁,489
45,종전,487
46,위장,467
47,월,459
48,조명,458
49,문,449
