,저가,고가,거래량,날짜
0,271500,279500,126696,2018.05.21
1,260000,272500,140670,2018.05.18
2,258500,266500,59846,2018.05.17
3,254500,260000,80294,2018.05.16
4,261500,266000,46160,2018.05.15
5,262000,269000,67188,2018.05.14
6,258000,270500,155232,2018.05.11
7,255500,271500,147645,2018.05.10
8,256000,263000,63130,2018.05.09
9,259000,266500,83937,2018.05.08
10,263500,270500,56841,2018.05.04
11,263000,271500,73788,2018.05.03
12,266500,272500,45198,2018.05.02
13,266000,272500,53984,2018.04.30
14,264000,270000,52785,2018.04.27
15,266500,271000,46129,2018.04.26
16,263500,271500,47212,2018.04.25
17,268000,274500,80276,2018.04.24
18,263500,268500,65134,2018.04.23
19,262000,268000,96518,2018.04.20
20,267500,275000,95912,2018.04.19
21,271000,276000,54643,2018.04.18
22,272000,278500,46923,2018.04.17
23,276000,281500,34578,2018.04.16
24,275000,281500,56282,2018.04.13
25,273000,281000,102251,2018.04.12
26,281000,288000,94912,2018.04.11
27,283000,292000,62953,2018.04.10
28,283500,290500,60069,2018.04.09
29,279000,288000,75373,2018.04.06
30,280000,295000,130373,2018.04.05
31,282000,291500,141013,2018.04.04
32,270500,286000,136722,2018.04.03
33,270000,276000,103311,2018.04.02
34,270500,276000,83224,2018.03.30
35,266500,271500,99913,2018.03.29
36,266000,273500,95592,2018.03.28
37,268000,277000,139586,2018.03.27
38,267000,277000,100775,2018.03.26
39,271500,278500,84040,2018.03.23
40,278000,284000,55081,2018.03.22
41,280500,285500,46716,2018.03.21
42,277000,285000,58345,2018.03.20
43,277000,288000,117280,2018.03.19
44,282000,290000,125332,2018.03.16
45,274500,283500,118651,2018.03.15
46,276000,283000,77834,2018.03.14
47,281000,287000,117945,2018.03.13
48,286000,305000,186601,2018.03.12
49,291000,305500,83861,2018.03.09
50,288500,303500,116457,2018.03.08
51,293000,300000,84469,2018.03.07
52,293500,303000,86213,2018.03.06
53,295500,317000,108244,2018.03.05
54,298000,314000,95962,2018.03.02
55,302000,313000,111129,2018.02.28
56,306000,319500,100801,2018.02.27
57,310500,323500,130535,2018.02.26
58,297500,310000,111962,2018.02.23
59,292500,301000,61975,2018.02.22
60,288500,304500,111963,2018.02.21
61,293000,301500,58255,2018.02.20
62,286500,300500,116346,2018.02.19
63,280000,291000,115711,2018.02.14
64,273000,281000,83851,2018.02.13
65,270000,286000,104740,2018.02.12
66,274500,282000,89130,2018.02.09
67,272000,285000,126115,2018.02.08
68,278500,292500,122337,2018.02.07
69,275500,288000,109165,2018.02.06
70,282500,289000,55264,2018.02.05
71,285000,292500,79557,2018.02.02
72,286000,295500,111459,2018.02.01
73,287500,301500,131660,2018.01.31
74,292000,302500,94717,2018.01.30
75,294500,311000,222747,2018.01.29
76,255000,297000,515536,2018.01.26
77,254000,259500,133420,2018.01.25
78,259500,262000,69112,2018.01.24
79,259500,264500,79048,2018.01.23
80,259000,266000,73601,2018.01.22
81,260500,266000,68670,2018.01.19
82,259000,264000,72523,2018.01.18
83,258000,266500,120347,2018.01.17
84,257000,265000,107372,2018.01.16
85,262000,271500,70057,2018.01.15
86,268500,279500,86650,2018.01.12
87,268500,280000,93438,2018.01.11
88,273000,279500,58278,2018.01.10
89,266000,275500,66331,2018.01.09
90,259000,273500,81519,2018.01.08
91,256000,260500,58026,2018.01.05
92,255000,264500,78635,2018.01.04
93,255000,263000,63619,2018.01.03
94,260500,273000,62482,2018.01.02
95,264500,271000,46093,2017.12.28
96,260000,270500,40467,2017.12.27
97,264500,274500,52600,2017.12.26
98,267500,275000,49432,2017.12.22
99,264500,276000,74445,2017.12.21
