,저가,고가,날짜,거래량,전일비
0,23350,24650,2018.06.19,94138,1000
1,24300,25000,2018.06.18,38900,450
2,24250,25050,2018.06.15,36519,450
3,24450,25050,2018.06.14,40462,250
4,24650,25450,2018.06.12,45558,400
5,24750,25250,2018.06.11,24321,550
6,24550,25000,2018.06.08,28693,100
7,24200,24600,2018.06.07,28133,100
8,24300,24550,2018.06.05,16040,200
9,23900,24400,2018.06.04,14622,400
10,23900,24200,2018.06.01,48940,100
11,24000,24400,2018.05.31,26841,200
12,24100,24250,2018.05.30,22884,100
13,24100,24500,2018.05.29,28493,150
14,24050,24450,2018.05.28,43146,150
15,24150,25300,2018.05.25,86253,900
16,25100,25500,2018.05.24,35656,300
17,25350,25700,2018.05.23,42993,0
18,25350,25700,2018.05.21,22829,50
19,25400,25700,2018.05.18,33912,150
20,25500,26000,2018.05.17,35316,50
21,25750,26100,2018.05.16,34577,400
22,25950,26600,2018.05.15,28489,350
23,25800,26650,2018.05.14,62166,750
24,25500,25750,2018.05.11,25866,250
25,25450,25900,2018.05.10,30263,150
26,25300,25850,2018.05.09,28331,350
27,25250,25800,2018.05.08,23568,100
28,25250,25500,2018.05.04,19340,50
29,25400,25750,2018.05.03,32717,100
30,25500,25950,2018.05.02,36430,250
31,25800,26400,2018.04.30,41543,450
32,26150,26550,2018.04.27,29452,100
33,26000,26400,2018.04.26,34444,200
34,25750,26350,2018.04.25,63969,150
35,25750,29200,2018.04.24,451207,600
36,25500,26000,2018.04.23,36241,500
37,25800,26150,2018.04.20,24149,100
38,25750,26200,2018.04.19,40292,100
39,25500,26100,2018.04.18,27844,300
40,25300,25850,2018.04.17,42680,0
41,25300,26000,2018.04.16,50921,500
42,25600,26100,2018.04.13,23888,50
43,25750,26450,2018.04.12,35572,250
44,26250,26900,2018.04.11,52962,50
45,25350,26850,2018.04.10,82029,800
46,25250,25850,2018.04.09,45135,200
47,25000,25600,2018.04.06,65293,250
48,25450,26100,2018.04.05,26433,100
49,25200,26200,2018.04.04,57153,550
50,26000,26300,2018.04.03,32537,250
51,26200,27150,2018.04.02,61322,250
52,25850,26400,2018.03.30,25181,450
53,25550,26350,2018.03.29,34403,350
54,25400,26500,2018.03.28,38514,350
55,25550,26250,2018.03.27,19166,400
56,25350,25900,2018.03.26,28011,150
57,25350,26150,2018.03.23,28383,850
58,25900,26600,2018.03.22,21611,350
59,25950,27300,2018.03.21,54331,1000
60,26450,27100,2018.03.20,24932,250
61,25700,27000,2018.03.19,81161,1050
62,24900,25900,2018.03.16,72718,750
63,24750,25150,2018.03.15,22964,150
64,24900,25200,2018.03.14,13875,0
65,25100,26150,2018.03.13,66571,900
66,25850,26450,2018.03.12,62827,200
67,25150,26250,2018.03.09,54490,700
68,25100,25750,2018.03.08,36403,0
69,25050,25700,2018.03.07,31477,300
70,24950,25500,2018.03.06,28778,500
71,24250,25650,2018.03.05,77509,1000
72,23450,24400,2018.03.02,48164,50
73,24000,24700,2018.02.28,44920,700
74,24650,25200,2018.02.27,30150,450
75,24450,25150,2018.02.26,26219,450
76,24500,25100,2018.02.23,30576,150
77,24650,25100,2018.02.22,27327,200
78,24700,25250,2018.02.21,25232,150
79,24600,25150,2018.02.20,19463,50
80,24450,24950,2018.02.19,22810,750
81,24150,24500,2018.02.14,28443,100
82,24250,25250,2018.02.13,68099,900
83,25050,25500,2018.02.12,37844,100
84,25100,25600,2018.02.09,58522,450
85,25350,26050,2018.02.08,42353,450
86,25300,26000,2018.02.07,49669,350
87,25300,25950,2018.02.06,104251,900
88,26550,27200,2018.02.05,64225,1050
89,27450,28550,2018.02.02,67752,200
90,27650,28400,2018.02.01,57359,800
91,27850,29000,2018.01.31,62063,200
92,28400,30100,2018.01.30,141787,200
93,28150,29000,2018.01.29,53121,400
94,27750,29450,2018.01.26,139698,600
95,28200,28950,2018.01.25,73123,450
96,28000,28700,2018.01.24,77861,300
97,27200,28500,2018.01.23,95312,750
98,26850,27800,2018.01.22,52178,100
99,26700,27450,2018.01.19,54849,50
