,name,code
0,BYC,001460
1,CJ CGV,079160
2,DB손해보험,005830
3,DGB금융지주,139130
4,DSR제강,069730
5,KB금융,105560
6,KC그린홀딩스,009440
7,KISCO홀딩스,001940
8,LS전선아시아,229640
9,MH에탄올,023150
10,NICE,034310
11,S&T홀딩스,036530
12,SK텔레콤,017670
13,STX중공업,071970
14,계양전기,012200
15,골든브릿지증권,001290
16,기업은행,024110
17,깨끗한나라,004540
18,남광토건,001260
19,남해화학,025860
20,다스코,058730
21,대구백화점,006370
22,대신증권,003540
23,대한제분,001130
24,대한항공,003490
25,대한해운,005880
26,대호에이엘,069460
27,덕양산업,024900
28,덴티움,145720
29,디씨엠,024090
30,락앤락,115390
31,롯데지주,004990
32,롯데케미칼,011170
33,마니커,027740
34,메리츠종금증권,008560
35,모토닉,009680
36,보락,002760
37,보령제약,003850
38,사조해표,079660
39,삼양통상,002170
40,삼정펄프,009770
41,삼호개발,010960
42,삼화전자공업,011230
43,상신브레이크,041650
44,선진,136490
45,세아특수강,019440
46,세아홀딩스,058650
47,세종공업,033530
48,세화아이엠씨,145210
49,송원산업,004430
50,신세계인터내셔날,031430
51,신풍제지,002870
52,신화실업,001770
53,신흥,004080
54,씨에스윈드,112610
55,아이에이치큐,003560
56,에스원,012750
57,에스제이엠홀딩스,025530
58,에이리츠,140910
59,오뚜기,007310
60,우진,105840
61,우진플라임,049800
62,유니켐,011330
63,유진증권,001200
64,이노션,214320
65,이마트,139480
66,이수페타시스,007660
67,인지컨트롤스,023800
68,인터지스,129260
69,일신방직,003200
70,일정실업,008500
71,일진디스플,020760
72,제일기획,030000
73,지투알,035000
74,진에어,272450
75,케이티앤지,033780
76,코리아오토글라스,152330
77,코스맥스비티아이,044820
78,코스모화학,005420
79,키위미디어그룹,012170
80,태평양물산,007980
81,포스코강판,058430
82,폴루스바이오팜,007630
83,한국공항,005430
84,한국수출포장공업,002200
85,한국주철관공업,000970
86,한국화장품,123690
87,한샘,009240
88,한세예스24홀딩스,016450
89,한신공영,004960
90,현대리바트,079430
91,현대약품,004310
92,현대에이치씨엔,126560
93,현대중공업지주,267250
94,형지엘리트,093240
95,호텔신라,008770
96,화신,010690
97,휴스틸,005010
98,CJ프레시웨이,051500
99,DB라이텍,045890
100,GMR 머티리얼즈,032860
101,IBKS제5호스팩,254120
102,IBKS제8호스팩,277410
103,KCI,036670
104,KT서브마린,060370
105,NE능률,053290
106,NHN한국사이버결제,060250
107,SCI평가정보,036120
108,SG&G,040610
109,SK머티리얼즈,036490
110,골드퍼시픽,038530
111,골든브릿지제4호스팩,227950
112,구영테크,053270
113,국영지앤엠,006050
114,국일신동,060480
115,글로벌에스엠,900070
116,나노캠텍,091970
117,나스미디어,089600
118,네오티스,085910
119,네이블커뮤니케이션즈,153460
120,넥스턴,089140
121,넥스트리밍,139670
122,넵튠,217270
123,녹십자엠에스,142280
124,다날,064260
125,다산네트웍스,039560
126,대륙제관,004780
127,대성파인텍,104040
128,대신밸런스제3호스팩,253590
129,대주산업,003310
130,대호피앤씨,021040
131,데일리블록체인,139050
132,동부스팩3호,226440
133,동운아나텍,094170
134,동일철강,023790
135,디에스티,033430
136,디에스티로봇,090710
137,디에이치피코리아,131030
138,디에이테크놀로지,196490
139,디에이피,066900
140,디엔에이링크,127120
141,디젠스,113810
142,디지털대성,068930
143,라이브플렉스,050120
144,라이온켐텍,171120
145,램테크놀러지,171010
146,랩지노믹스,084650
147,로보스타,090360
148,로스웰,900260
149,로지시스,067730
150,멜파스,096640
151,무림SP,001810
152,미코,059090
153,바른손이앤에이,035620
154,바이오리더스,142760
155,뷰웍스,100120
156,브레인콘텐츠,066980
157,비츠로셀,082920
158,빅텍,065450
159,삼기오토모티브,122350
160,삼보판지,023600
161,삼표시멘트,038500
162,상신전자,263810
163,상아프론테크,089980
164,성광벤드,014620
165,성창오토텍,080470
166,세중,039310
167,손오공,066910
168,솔고바이오,043100
169,슈프리마에이치큐,094840
170,시너지이노베이션,048870
171,신라섬유,001000
172,신진에스엠,138070
173,신한제3호스팩,257730
174,신화인터텍,056700
175,싸이맥스,160980
176,쌍용정보통신,010280
177,썸에이지,208640
178,씨젠,096530
179,씨티씨바이오,060590
180,아가방컴퍼니,013990
181,아비코전자,036010
182,아이에스이커머스,069920
183,아프리카TV,067160
184,야스,255440
185,에스디생명공학,217480
186,에스모,073070
187,에스앤에스텍,101490
188,에쎈테크,043340
189,에이치엘비,028300
190,에이텍,045660
191,에이텍티앤,224110
192,에이티세미콘,089530
193,에코플라스틱,038110
194,에프엔씨엔터,173940
195,엑시콘,092870
196,엔에스엔,031860
197,엔에이치스팩11호,256840
198,엔에이치스팩12호,273060
199,엠씨넥스,097520
200,엠플러스,259630
201,연이정보통신,090740
202,영신금속,007530
203,영우디에스피,143540
204,예스24,053280
205,와이비엠넷,057030
206,와이아이케이,232140
207,와이엠티,251370
208,원풍,008370
209,웹젠,069080
210,유니온커뮤니티,203450
211,유니테스트,086390
212,유신,054930
213,유진테크,084370
214,유티아이,179900
215,이건홀딩스,039020
216,이디,033110
217,이수앱지스,086890
218,이스트아시아홀딩스,900110
219,이씨에스,067010
220,인바디,041830
221,인탑스,049070
222,인터불스,158310
223,인피니트헬스케어,071200
224,제낙스,065620
225,제룡산업,147830
226,제우스,079370
227,진바이오텍,086060
228,카페24,042000
229,케이맥,043290
230,케이비제10호스팩,250930
231,케이씨에스,115500
232,케이피에스,256940
233,코스메카코리아,241710
234,코웰패션,033290
235,코콤,015710
236,큐에스아이,066310
237,크로바하이텍,043590
238,클리오,237880
239,토박스코리아,215480
240,티씨케이,064760
241,티케이케미칼,104480
242,파수닷컴,150900
243,파워로직스,047310
244,파인디앤씨,049120
245,파크시스템스,140860
246,판타지오,032800
247,펄어비스,263750
248,포스코켐텍,003670
249,프로텍,053610
250,피씨디렉트,051380
251,하이텍팜,106190
252,한국코퍼레이션,050540
253,한스바이오메드,042520
254,한일화학,007770
255,한프,066110
256,현대통신,039010
257,홈센타홀딩스,060560
258,휴마시스,205470
259,데이터스트림즈,199150
260,디지캡,197140
261,래몽래인,200350
262,메디쎄이,200580
263,비나텍,126340
264,씨앤에스링크,245450
265,알로이스,271400
266,에이비온,203400
267,에프앤가이드,064850
268,엠에프엠코리아,251960
269,옐로페이,179720
270,오파스넷,173130
271,유비온,084440
272,줌인터넷,229480
273,지티지웰니스,219750
274,툴젠,199800
275,휴럼,284420
276,AK홀딩스,006840
277,CJ,001040
278,DSR,155660
279,HDC,012630
280,HSD엔진,082740
281,KC코트렐,119650
282,KR모터스,000040
283,LG디스플레이,034220
284,LG상사,001120
285,LIG넥스원,079550
286,NAVER,035420
287,SBS,034120
288,SK가스,018670
289,SPC삼립,005610
290,TCC동양,002710
291,WISCOM,024070
292,경농,002100
293,교보증권,030610
294,기신정기,092440
295,기아자동차,000270
296,까뮤이앤씨,013700
297,노루홀딩스,000320
298,대교,019680
299,대림산업,000210
300,대양금속,009190
301,대우조선해양,042660
302,대원화성,024890
303,대창,012800
304,대창단조,015230
305,동북아13호선박투자,083380
306,동양고속,084670
307,동일제강,002690
308,두산,000150
309,디아이씨,092200
310,디와이,013570
311,메디플란트,015540
312,문배철강,008420
313,미원화학,134380
314,방림,003610
315,빙그레,005180
316,삼성제약,001360
317,삼성중공업,010140
318,삼영무역,002810
319,삼익악기,002450
320,서울도시가스,017390
321,선창산업,002820
322,성신양회,004980
323,성창기업지주,000180
324,세아제강,003030
325,세진중공업,075580
326,셀트리온,068270
327,신세계푸드,031440
328,신송홀딩스,006880
329,신영와코루,005800
330,신일산업,002700
331,아시아나항공,020560
332,아이에스동서,010780
333,아주캐피탈,033660
334,에이엔피,015260
335,엔씨소프트,036570
336,우신시스템,017370
337,유안타증권,003470
338,이건산업,008250
339,이구산업,025820
340,이수화학,005950
341,이스타코,015020
342,이월드,084680
343,인스코비,006490
344,일진홀딩스,015860
345,제일약품,271980
346,조선내화,000480
347,조일알미늄,018470
348,종근당,185750
349,종근당바이오,063160
350,케이씨씨,002380
351,코오롱머티리얼,144620
352,코웨이,021240
353,크라운제과,264900
354,티비에이치글로벌,084870
355,퍼스텍,010820
356,평화홀딩스,010770
357,하이골드12호,172580
358,하이골드8호,159650
359,한국콜마,161890
360,한국콜마홀딩스,024720
361,한국타이어월드와이드,000240
362,한국토지신탁,034830
363,한화손해보험,000370
364,현대엘리베이터,017800
365,현대위아,011210
366,현대홈쇼핑,057050
367,혜인,003010
368,호전실업,111110
369,화천기계,010660
370,환인제약,016580
371,휴니드테크놀러지스,005870
372,흥국화재,000540
373,GRT,900290
374,HRS,036640
375,IBKS제3호스팩,225430
376,ISC,095340
377,ITX엠투엠,099520
378,KB오토시스,024120
379,KG ETS,151860
380,KJ프리텍,083470
381,KPX생명과학,114450
382,MP그룹,065150
383,MP한강,219550
384,SFA반도체,036540
385,SIMPAC Metal,090730
386,교보비엔케이스팩,242040
387,국순당,043650
388,그랜드백화점,019010
389,금강철강,053260
390,나노신소재,121600
391,네오위즈,095660
392,네오위즈홀딩스,042420
393,넥스지,081970
394,넥스트칩,092600
395,뉴인텍,012340
396,대봉엘에스,078140
397,대성미생물,036480
398,대신정보통신,020180
399,대유위니아,071460
400,덕산하이메탈,077360
401,데이타솔루션,263800
402,덱스터,206560
403,동국산업,005160
404,동신건설,025950
405,디엠씨,101000
406,디엠티,134580
407,딜리,131180
408,레고켐바이오,141080
409,레드캡투어,038390
410,루멘스,038060
411,리더스코스메틱,016100
412,리드,197210
413,마제스타,035480
414,매일홀딩스,005990
415,모두투어,080160
416,모트렉스,118990
417,미래나노텍,095500
418,바디텍메드,206640
419,바이넥스,053030
420,바이오닉스진,222810
421,바이오로그디바이스,208710
422,보광산업,225530
423,브이원텍,251630
424,비디아이,148140
425,빛샘전자,072950
426,삼보모터스,053700
427,삼보산업,009620
428,삼양옵틱스,225190
429,삼일기업공사,002290
430,삼현철강,017480
431,샘코,263540
432,서울옥션,063170
433,서울제약,018680
434,서한,011370
435,선데이토즈,123420
436,셀트리온제약,068760
437,소프트센,032680
438,수산아이앤티,050960
439,스맥,099440
440,스카이문스테크놀로지,033790
441,시그네틱스,033170
442,씨아이에스,222080
443,씨트리,047920
444,아미노로직스,074430
445,아스타,246720
446,아이씨케이,068940
447,아이원스,114810
448,아이텍반도체,119830
449,안트로젠,065660
450,알서포트,131370
451,애니젠,196300
452,액토즈소프트,052790
453,양지사,030960
454,어보브반도체,102120
455,에너토크,019990
456,에스마크,030270
457,에스맥,097780
458,에스에이엠티,031330
459,에스에프에이,056190
460,에스제이케이,080440
461,에이치엘비생명과학,067630
462,엑셈,205100
463,엔지켐생명과학,183490
464,엘앤에프,066970
465,연우,115960
466,영인프런티어,036180
467,영풍정밀,036560
468,오상자이엘,053980
469,오성첨단소재,052420
470,오션브릿지,241790
471,오킨스전자,080580
472,옴니시스템,057540
473,옵토팩,123010
474,와이지-원,019210
475,와이지엔터테인먼트,122870
476,우림기계,101170
477,우수AMS,066590
478,원익,032940
479,윈팩,097800
480,유안타제3호스팩,287410
481,이글벳,044960
482,이니텍,053350
483,이매진아시아,036260
484,이오테크닉스,039030
485,인텔리안테크,189300
486,인트로메딕,150840
487,인프라웨어,041020
488,제노포커스,187420
489,제이스테판,096690
490,제이씨현시스템,033320
491,제이엔케이히터,126880
492,조광ILI,044060
493,주성엔지니어링,036930
494,중앙리빙테크,051980
495,중앙에너비스,000440
496,지니뮤직,043610
497,지스마트글로벌,114570
498,지에스이,053050
499,지엔씨에너지,119850
500,진성티이씨,036890
501,차바이오텍,085660
502,케이엔더블유,105330
503,케이엠더블유,032500
504,케이피티,054410
505,코닉글로리,094860
506,코세스,089890
507,코아스템,166480
508,코오롱생명과학,102940
509,큐렉소,060280
510,크레아플래닛,058530
511,클래시스,214150
512,트루윈,105550
513,특수건설,026150
514,티엘아이,062860
515,파나진,046210
516,파루,043200
517,파마리서치프로덕트,214450
518,파트론,091700
519,팜스토리,027710
520,팬스타엔터프라이즈,054300
521,팬젠,222110
522,폭스브레인,039230
523,퓨쳐스트림네트웍스,214270
524,피델릭스,032580
525,피에스케이,031980
526,피에스텍,002230
527,하이즈항공,221840
528,한국4호스팩,240540
529,한국정보공학,039740
530,한국정보통신,025770
531,한일네트웍스,046110
532,한컴지엠디,077280
533,현대공업,170030
534,휘닉스소재,050090
535,흥구석유,024060
536,TS트릴리온,284610
537,나무기술,167380
538,듀켐바이오,176750
539,라이프사이언스테크놀로지,285770
540,수프로,185190
541,씨알푸드,236030
542,씨앗,103660
543,씨티네트웍스,189540
544,아이케이세미콘,149010
545,에스와이제이,251540
546,엔에스컴퍼니,224760
547,엠로,058970
548,유니포인트,121060
549,이엔드디,101360
550,인산가,062580
551,제놀루션,225220
552,제이에스피브이,250300
553,주노콜렉션,221670
554,청광종건,140290
555,크로넥스,215570
556,탑선,180060
557,피노텍,150440
558,휴벡셀,212310
559,BNK금융지주,138930
560,DRB동일,004840
561,E1,017940
562,GS건설,006360
563,HDC현대EP,089470
564,JW생명과학,234080
565,JW중외제약,001060
566,KPX케미칼,025000
567,KSS해운,044450
568,LG하우시스,108670
569,SG세계물산,004060
570,SK하이닉스,000660
571,YG PLUS,037270
572,고려산업,002140
573,광주은행,192530
574,국동,005320
575,금강공업,014280
576,금호에이치티,214330
577,녹십자,006280
578,농심홀딩스,072710
579,다우기술,023590
580,대림통상,006570
581,대성홀딩스,016710
582,더존비즈온,012510
583,동국실업,001620
584,동부건설,005960
585,동성코퍼레이션,102260
586,동아지질,028100
587,동원산업,006040
588,동일방직,001530
589,롯데관광개발,032350
590,롯데정밀화학,004000
591,롯데푸드,002270
592,맵스리얼티1,094800
593,메리츠금융지주,138040
594,무학,033920
595,미원상사,002840
596,미원에스씨,268280
597,미원홀딩스,107590
598,부국증권,001270
599,부산주공,005030
600,사조동아원,008040
601,삼성공조,006660
602,삼성엔지니어링,028050
603,삼성전자,005930
604,삼양식품,003230
605,삼익THK,004380
606,삼일제약,000520
607,삼천리,004690
608,삼화콘덴서공업,001820
609,삼화페인트공업,000390
610,서흥,008490
611,성지건설,005980
612,세아베스틸,001430
613,쌍방울,102280
614,쌍용자동차,003620
615,아남전자,008700
616,아모레퍼시픽그룹,002790
617,아세아제지,002310
618,에스제이엠,123700
619,에이블씨엔씨,078520
620,영풍,000670
621,영풍제지,006740
622,예스코홀딩스,015360
623,웅진,016880
624,유양디앤유,011690
625,유유제약,000220
626,유한양행,000100
627,율촌화학,008730
628,일동홀딩스,000230
629,일진머티리얼즈,020150
630,제주항공,089590
631,조선선재,120030
632,진양산업,003780
633,진원생명과학,011000
634,체시스,033250
635,케이탑리츠,145270
636,코오롱인더,120110
637,토니모리,214420
638,티웨이홀딩스,004870
639,팬오션,028670
640,포스코대우,047050
641,풍산,103140
642,한국쉘석유,002960
643,한국전자홀딩스,006200
644,한국철강,104700
645,한라홀딩스,060980
646,한솔로지스틱스,009180
647,한온시스템,018880
648,한일철강,002220
649,한전기술,052690
650,한진,002320
651,한진칼,180640
652,한화,000880
653,해태제과식품,101530
654,핸즈코퍼레이션,143210
655,현대건설,000720
656,현대그린푸드,005440
657,현대백화점,069960
658,현대비앤지스틸,004560
659,현대시멘트,006390
660,현대일렉트릭,267260
661,화승인더스트리,006060
662,효성,004800
663,효성 ITX,094280
664,휴켐스,069260
665,흥아해운,003280
666,KD건설,044180
667,KNN,058400
668,RFHIC,218410
669,SGA,049470
670,SK3호스팩,232330
671,W홀딩컴퍼니,052300
672,고영,098460
673,국일제지,078130
674,나노,187790
675,나노스,151910
676,나이벡,138610
677,네오디안테크놀로지,072770
678,네패스신소재,087730
679,넥슨지티,041140
680,뉴보텍,060260
681,뉴파워프라즈마,144960
682,대림제지,017650
683,대양전기공업,108380
684,대주전자재료,078600
685,대진디엠피,065690
686,동아엘텍,088130
687,동양피엔에프,104460
688,드래곤플라이,030350
689,디지아이,043360
690,레이젠,047440
691,루미마이크로,082800
692,룽투코리아,060240
693,리노공업,058470
694,리켐,131100
695,매일유업,267980
696,메가스터디교육,215200
697,메디포스트,078160
698,멕아이씨에스,058110
699,모베이스,101330
700,모아텍,033200
701,미스터블루,207760
702,바른테크놀로지,029480
703,비에이치아이,083650
704,삼본정밀전자,111870
705,삼원테크,073640
706,삼일,032280
707,상신이디피,091580
708,새로닉스,042600
709,서산,079650
710,서연전자,012860
711,서원인텍,093920
712,서플러스글로벌,140070
713,선익시스템,171090
714,세운메디칼,100700
715,세원물산,024830
716,세종메디칼,258830
717,셀바스헬스케어,208370
718,소리바다,053110
719,쇼박스,086980
720,쎄니트,037760
721,쎄트렉아이,099320
722,씨씨에스,066790
723,씨엠에스에듀,225330
724,씨티엘,036170
725,아바코,083930
726,아세아텍,050860
727,아이센스,099190
728,알톤스포츠,123750
729,에스아이리소스,065420
730,에스앤더블류,103230
731,에스에프씨,112240
732,에스티아이,039440
733,에스티오,098660
734,에이스침대,003800
735,에이스테크,088800
736,에이앤티앤,050320
737,에이치엘사이언스,239610
738,에이치엠씨3호스팩,226340
739,에이치케이,044780
740,에코바이오,038870
741,에코프로,086520
742,엔브이에이치코리아,067570
743,엔터메이트,206400
744,엔피케이,048830
745,엘디티,096870
746,엘비세미콘,061970
747,엠케이전자,033160
748,영화테크,265560
749,오가닉티코스메틱,900300
750,오디텍,080520
751,옵티시스,109080
752,와이엔텍,067900
753,우리넷,115440
754,우리손에프앤지,073560
755,우리조명,037400
756,우원개발,046940
757,우주일렉트로,065680
758,위닉스,044340
759,위즈코프,038620
760,윈하이텍,192390
761,유니크,011320
762,유니트론텍,142210
763,유바이오로직스,206650
764,유지인트,195990
765,이베스트투자증권,078020
766,이엘피,063760
767,이지바이오,035810
768,이지웰페어,090850
769,인크로스,216050
770,인터플렉스,051370
771,인텍플러스,064290
772,인포마크,175140
773,제로투세븐,159580
774,제이엠아이,033050
775,제이엠티,094970
776,제주반도체,080220
777,조이맥스,101730
778,조이시티,067000
779,지어소프트,051160
780,지엠피,018290
781,창해에탄올,004650
782,캐스텍코리아,071850
783,캠시스,050110
784,케어젠,214370
785,케이씨티,089150
786,케이씨피드,025880
787,코디,080530
788,코디엠,224060
789,코스온,069110
790,텔콘RF제약,200230
791,토비스,051360
792,파인디지털,038950
793,퍼시픽바이오,060900
794,포스코 ICT,022100
795,피제이전자,006140
796,픽셀플러스,087600
797,하나마이크론,067310
798,하이에이아이1호스팩,235010
799,하츠,066130
800,핸디소프트,220180
801,현대정보기술,026180
802,화성밸브,039610
803,화신테크,086250
804,휴온스,243070
805,흥국에프엔비,189980
806,굿센,243870
807,나눔테크,244880
808,네추럴FNP,086220
809,노브메타파마,229500
810,로보쓰리,238500
811,메디안디노스틱,233250
812,메디젠휴먼케어,236340
813,명진홀딩스,267060
814,미디어젠,279600
815,바이오프로테크,199290
816,스템랩,258540
817,에스엘에스바이오,246250
818,에이치엔에스하이텍,044990
819,오백볼트,227420
820,위세아이텍,065370
821,이비테크,208850
822,지성이씨에스,138290
823,카이노스메드,220250
824,케미메디,205290
825,케이엠제약,237720
826,틸론,217880
827,파인이엠텍,278990
828,플렉스파워에이더블유에스,266870
829,한국비엔씨,226610
830,BGF리테일,282330
831,CS홀딩스,000590
832,DB,012030
833,DB하이텍,000990
834,GS글로벌,001250
835,JB금융지주,175330
836,JW홀딩스,096760
837,KPX홀딩스,092230
838,KTcs,058850
839,LG,003550
840,LS산전,010120
841,SH에너지화학,002360
842,SIMPAC,009160
843,SK증권,001510
844,경인전자,009140
845,광명전기,017040
846,국도화학,007690
847,금양,001570
848,금호산업,002990
849,남영비비안,002070
850,대성산업,128820
851,대영포장,014160
852,대웅,003090
853,대한전선,001440
854,도화엔지니어링,002150
855,동아타이어,282690
856,동양네트웍스,030790
857,동양물산기업,002900
858,두산건설,011160
859,두산인프라코어,042670
860,롯데손해보험,000400
861,만도,204320
862,메리츠화재,000060
863,미래산업,025560
864,미래아이앤지,007120
865,보해양조,000890
866,부국철강,026940
867,부산도시가스,015350
868,사조산업,007160
869,삼아알미늄,006110
870,삼양사,145990
871,새론오토모티브,075180
872,서울식품공업,004410
873,성문전자,014910
874,세방,004360
875,세하,027970
876,신세계,004170
877,신영증권,001720
878,아세아,002030
879,에쓰씨엔지니어링,023960
880,에이프로젠 KIC,007460
881,영보화학,014440
882,영원무역홀딩스,009970
883,영화금속,012280
884,웅진씽크빅,095720
885,유니드,014830
886,유엔젤,072130
887,유화증권,003460
888,이연제약,102460
889,일진전기,103590
890,자화전자,033240
891,전방,000950
892,제이준코스메틱,025620
893,조광피혁,004700
894,조비,001550
895,진양홀딩스,100250
896,케이씨티시,009070
897,코아스,071950
898,코오롱,002020
899,큐로,015590
900,키다리스튜디오,020120
901,태경산업,015890
902,태경화학,006890
903,태영건설,009410
904,태원물산,001420
905,파미셀,005690
906,풍산홀딩스,005810
907,하이트론씨스템즈,019490
908,하이트진로,000080
909,한국ANKOR유전,152550
910,한국금융지주,071050
911,한국자산신탁,123890
912,한국종합기술,023350
913,한국주강,025890
914,한국카본,017960
915,한국항공우주,047810
916,한농화성,011500
917,한미반도체,042700
918,한미약품,128940
919,한섬,020000
920,한세실업,105630
921,한솔케미칼,014680
922,한솔테크닉스,004710
923,한창제지,009460
924,현대모비스,012330
925,현대자동차,005380
926,현대코퍼레이션홀딩스,227840
927,화승엔터프라이즈,241590
928,화인베스틸,133820
929,휴비스,079980
930,APS홀딩스,054620
931,CJ E&M,130960
932,CMG제약,058820
933,EG,037370
934,GH신소재,130500
935,GST,083450
936,IBKS제6호스팩,264850
937,KG이니시스,035600
938,NICE평가정보,030190
939,SBI인베스트먼트,019550
940,SK바이오랜드,052260
941,YTN,040300
942,고려제약,014570
943,골프존뉴딘홀딩스,121440
944,광림,014200
945,광진실업,026910
946,나노엔텍,039860
947,나이스디앤비,130580
948,남화토건,091590
949,녹십자셀,031390
950,누리텔레콤,040160
951,뉴트리바이오텍,222040
952,뉴프라이드,900100
953,다원시스,068240
954,대명코퍼레이션,007720
955,대성창투,027830
956,대창스틸,140520
957,더블유게임즈,192080
958,동부스팩5호,281740
959,동우팜투테이블,088910
960,두올산업,078590
961,드림시큐리티,203650
962,디딤,217620
963,디알텍,214680
964,디지탈옵틱,106520
965,디케이락,105740
966,디티앤씨,187220
967,로보로보,215100
968,로체시스템즈,071280
969,리드코프,012700
970,마이크로컨텍솔,098120
971,매직마이크로,127160
972,맥스로텍,141070
973,멀티캠퍼스,067280
974,메가엠디,133750
975,메이슨캐피탈,021880
976,메카로,241770
977,모다,149940
978,모바일어플라이언스,087260
979,미동앤씨네마,161570
980,민앤지,214180
981,바이로메드,084990
982,바이온,032980
983,백금T&A,046310
984,베셀,177350
985,보령메디앙스,014100
986,블루콤,033560
987,비에이치,090460
988,삼강엠앤티,100090
989,삼아제약,009300
990,삼진엘앤디,054090
991,삼천리자전거,024950
992,상상인,038540
993,서린바이오,038070
994,서암기계공업,100660
995,서울리거,043710
996,서희건설,035890
997,성도이엔지,037350
998,성호전자,043260
999,세미콘라이트,214310
1000,세보엠이씨,011560
1001,세종텔레콤,036630
1002,세진티에스,067770
1003,세코닉스,053450
1004,세화피앤씨,252500
1005,셀루메드,049180
1006,솔트웍스,230980
1007,스포츠서울,039670
1008,시노펙스,025320
1009,신라젠,215600
1010,신스타임즈,056000
1011,신흥에스이씨,243840
1012,실리콘웍스,108320
1013,심텍,222800
1014,썬텍,122800
1015,쎌바이오텍,049960
1016,쏠리드,050890
1017,씨앤지하이테크,264660
1018,씨엔플러스,115530
1019,씨큐브,101240
1020,아스트,067390
1021,아시아경제,127710
1022,아시아종묘,154030
1023,아이쓰리시스템,214430
1024,알리코제약,260660
1025,알에프세미,096610
1026,알파홀딩스,117670
1027,에너전트,041590
1028,에스씨디,042110
1029,에스엠코어,007820
1030,에스트래픽,234300
1031,에스티팜,237690
1032,에이치시티,072990
1033,에이프로젠 H&G,109960
1034,에치디프로,214870
1035,에코마이스터,064510
1036,에프티이앤이,065160
1037,엑세스바이오,950130
1038,엘앤케이바이오,156100
1039,엘엠에스,073110
1040,엘티씨,170920
1041,엠벤처투자,019590
1042,엠젠플러스,032790
1043,오공,045060
1044,오스코텍,039200
1045,오스테오닉,226400
1046,오스템임플란트,048260
1047,옴니텔,057680
1048,와이디온라인,052770
1049,와이엠씨,155650
1050,와이오엠,066430
1051,우노앤컴퍼니,114630
1052,우리이티아이,082850
1053,우진비앤지,018620
1054,원익큐브,014190
1055,월덱스,101160
1056,웰크론한텍,076080
1057,위지트,036090
1058,유니테크노,241690
1059,유비케어,032620
1060,유성티엔에스,024800
1061,이노와이어리스,073490
1062,이에스브이,223310
1063,이원컴포텍,088290
1064,이즈미디어,181340
1065,이트론,096040
1066,이화공영,001840
1067,인트론바이오,048530
1068,일경산업개발,078940
1069,일야,058450
1070,일지테크,019540
1071,일진파워,094820
1072,재영솔루텍,049630
1073,제넥신,095700
1074,제닉,123330
1075,제이스텍,090470
1076,제이에스티나,026040
1077,제이티,089790
1078,제일테크노스,038010
1079,제일홀딩스,003380
1080,진매트릭스,109820
1081,케이디켐,221980
1082,코렌,078650
1083,코맥스,036690
1084,코메론,049430
1085,코센,009730
1086,코엔텍,029960
1087,코오롱티슈진,950160
1088,쿠첸,225650
1089,태웅,044490
1090,테크윙,089030
1091,티비씨,033830
1092,파인텍,131760
1093,포비스티앤씨,016670
1094,풍강,093380
1095,풍국주정,023900
1096,퓨전데이타,195440
1097,퓨쳐켐,220100
1098,피앤이솔루션,131390
1099,피앤텔,054340
1100,필링크,064800
1101,하나금융11호스팩,284620
1102,한국전자금융,063570
1103,한국제5호스팩,271740
1104,한글과컴퓨터,030520
1105,한솔시큐어,070300
1106,한솔씨앤피,221610
1107,한양디지텍,078350
1108,한일단조,024740
1109,한일진공,123840
1110,한창산업,079170
1111,한컴유니맥스,215090
1112,해성산업,034810
1113,해성옵틱스,076610
1114,헝셩그룹,900270
1115,현대사료,016790
1116,관악산업,076340
1117,구름게임즈앤컴퍼니,223220
1118,다이노나,086080
1119,두원석재,270020
1120,디피코,163430
1121,루켄테크놀러지스,162120
1122,선바이오,067370
1123,소프트캠프,210610
1124,앙츠,267810
1125,에스엔피제네틱스,086460
1126,에이원알폼,234070
1127,엠앤씨생명과학,225860
1128,유투바이오,221800
1129,인카금융서비스,211050
1130,전우정밀,120780
1131,젠큐릭스,229000
1132,지노믹트리,228760
1133,코셋,189350
1134,태양기계,116100
1135,판도라티비,202960
1136,하우동천,233990
1137,AJ네트웍스,095570
1138,BGF,027410
1139,CJ대한통운,000120
1140,CJ제일제당,097950
1141,CJ헬로,037560
1142,DB금융투자,016610
1143,HDC아이콘트롤스,039570
1144,KTB투자증권,030210
1145,LG생활건강,051900
1146,LG유플러스,032640
1147,LG전자,066570
1148,LS네트웍스,000680
1149,NHN엔터테인먼트,181710
1150,S&TC,100840
1151,S-Oil,010950
1152,SK디스커버리,006120
1153,SK케미칼,285130
1154,경동인베스트,012320
1155,고려제강,002240
1156,국보,001140
1157,금비,008870
1158,금호전기,001210
1159,금호타이어,073240
1160,남양유업,003920
1161,대림씨엔에스,004440
1162,대우건설,047040
1163,대원강업,000430
1164,대원제약,003220
1165,대한화섬,003830
1166,동방,004140
1167,동부제철,016380
1168,동성제약,002210
1169,동원금속,018500
1170,동일고무벨트,163560
1171,두산중공업,034020
1172,디아이,003160
1173,롯데쇼핑,023530
1174,롯데칠성음료,005300
1175,모두투어리츠,204210
1176,무림P&P,009580
1177,백광소재,014580
1178,베트남개발1,096300
1179,비상교육,100220
1180,삼부토건,001470
1181,삼성물산,028260
1182,삼성생명,032830
1183,삼성전기,009150
1184,삼성카드,029780
1185,삼양홀딩스,000070
1186,샘표,007540
1187,서원,021050
1188,세기상사,002420
1189,세원셀론텍,091090
1190,세원정공,021820
1191,시디즈,134790
1192,신세계건설,034300
1193,아이마켓코리아,122900
1194,에넥스,011090
1195,에스엘,005850
1196,엔피씨,004250
1197,엘브이엠씨,900140
1198,영원무역,111770
1199,우리들제약,004720
1200,유성기업,002920
1201,이화산업,000760
1202,일동제약,249420
1203,일양약품,007570
1204,일진다이아,081000
1205,제이에스코퍼레이션,194370
1206,제일연마,001560
1207,조흥,002600
1208,주연테크,044380
1209,지엠비코리아,013870
1210,진양화학,051630
1211,진흥기업,002780
1212,천일고속,000650
1213,케이씨,029460
1214,코스맥스,192820
1215,콤텍시스템,031820
1216,크라운해태홀딩스,005740
1217,포스코,005490
1218,풀무원,017810
1219,하나투어,039130
1220,하이골드3호,153360
1221,한국석유공업,004090
1222,한국유리공업,002000
1223,한국타이어,161390
1224,한국특수형강,007280
1225,한국프랜지공업,010100
1226,한양증권,001750
1227,한일시멘트,003300
1228,한진중공업,097230
1229,한창,005110
1230,현대글로비스,086280
1231,현대미포조선,010620
1232,현대차투자증권,001500
1233,AP위성,211270
1234,DMS,068790
1235,EMW,079190
1236,IBKS제7호스팩,276920
1237,JTC,950170
1238,KG모빌리언스,046440
1239,KMH하이텍,052900
1240,NHN벅스,104200
1241,SGA솔루션즈,184230
1242,SKC 솔믹스,057500
1243,SM C&C,048550
1244,THE E&M,089230
1245,TJ미디어,032540
1246,가비아,079940
1247,감마누,192410
1248,경남스틸,039240
1249,경동제약,011040
1250,기가레인,049080
1251,나라엠앤디,051490
1252,네패스,033640
1253,넥스트아이,137940
1254,넷게임즈,225570
1255,대동스틸,048470
1256,대성엘텍,025440
1257,대한과학,131220
1258,대화제약,067080
1259,덕산네오룩스,213420
1260,덕우전자,263600
1261,동국S&C,100130
1262,동국알앤에스,075970
1263,동방선기,099410
1264,동부제4호스팩,230490
1265,동양이엔피,079960
1266,동일기연,032960
1267,동진쎄미켐,005290
1268,디엔에프,092070
1269,디지틀조선,033130
1270,러셀,217500
1271,레이언스,228850
1272,링네트,042500
1273,모바일리더,100030
1274,미래컴퍼니,049950
1275,미투온,201490
1276,바이오제네틱스,044480
1277,바텍,043150
1278,버추얼텍,036620
1279,부스타,008470
1280,비덴트,121800
1281,비씨월드제약,200780
1282,비엠티,086670
1283,삼진,032750
1284,상지카일룸,042940
1285,서울전자통신,027040
1286,서전기전,189860
1287,서호전기,065710
1288,선광,003100
1289,성우테크론,045300
1290,세동,053060
1291,세원,234100
1292,셀트리온헬스케어,091990
1293,슈프리마,236200
1294,스튜디오드래곤,253450
1295,신신제약,002800
1296,신텍,099660
1297,아리온,058220
1298,아모텍,052710
1299,아이리버,060570
1300,아이엠,101390
1301,아이엠텍,226350
1302,아진산업,013310
1303,알에스오토메이션,140670
1304,에스디시스템,121890
1305,에스에너지,095910
1306,에스에이티,060540
1307,에스엔피월드,263920
1308,에스텍,069510
1309,에스텍파마,041910
1310,에스티큐브,052020
1311,에스피지,058610
1312,에임하이,043580
1313,에프에스티,036810
1314,엔에이치스팩10호,256630
1315,엘아이에스,138690
1316,엘컴텍,037950
1317,엠에스씨,009780
1318,엠에스오토텍,123040
1319,오르비텍,046120
1320,오리엔트정공,065500
1321,오이솔루션,138080
1322,오텍,067170
1323,와이솔,122990
1324,와토스코리아,079000
1325,우리기술투자,041190
1326,우성아이비,194610
1327,우정바이오,215380
1328,원익테라세미콘,123100
1329,위메이드,112040
1330,유라테크,048430
1331,유비쿼스홀딩스,078070
1332,이노인스트루먼트,215790
1333,이미지스,115610
1334,이상네트웍스,080010
1335,이엑스티,226360
1336,이엔에프테크놀로지,102710
1337,이엠코리아,095190
1338,인성정보,033230
1339,인포뱅크,039290
1340,자이글,234920
1341,정산애강,022220
1342,제너셈,217190
1343,제이씨케미칼,137950
1344,젬백스,082270
1345,조아제약,034940
1346,지란지교시큐리티,208350
1347,지엘팜텍,204840
1348,지트리비앤티,115450
1349,진양제약,007370
1350,차이나그레이트,900040
1351,차이나하오란,900090
1352,참좋은여행,094850
1353,체리부로,066360
1354,컴투스,078340
1355,케이디 네이쳐 엔 바이오,072520
1356,케이사인,192250
1357,케이에스피,073010
1358,케이피에프,024880
1359,코리아나,027050
1360,크리스탈,083790
1361,탑엔지니어링,065130
1362,태양,053620
1363,텔레칩스,054450
1364,텔레필드,091440
1365,토필드,057880
1366,톱텍,108230
1367,투비소프트,079970
1368,투윈글로벌,066410
1369,티피씨글로벌,130740
1370,파라텍,033540
1371,파워넷,037030
1372,파티게임즈,194510
1373,팬엔터테인먼트,068050
1374,푸른저축은행,007330
1375,플랜티넷,075130
1376,피씨엘,241820
1377,하나머티리얼즈,166090
1378,하림,136480
1379,하림홀딩스,024660
1380,한국전자인증,041460
1381,한국정보인증,053300
1382,한일사료,005860
1383,한컴시큐어,054920
1384,한화수성스팩,265920
1385,한화에이스스팩4호,279410
1386,해덕파워웨이,102210
1387,형지I&C,011080
1388,홈캐스트,064240
1389,화신정공,126640
1390,화진,134780
1391,희림,037440
1392,대동고려삼,178600
1393,데카시스템,183410
1394,미코바이오메드,214610
1395,본느,242420
1396,빅텐츠,210120
1397,세종머티리얼즈,135270
1398,썬테크,217320
1399,씨이랩,189330
1400,에스제이켐,217910
1401,이에스산업,241510
1402,인프라웨어테크놀러지,247300
1403,지오씨,135160
1404,피시피아비아이티,258250
1405,피엔아이컴퍼니,242350
1406,피엔에이치테크,239890
1407,AJ렌터카,068400
1408,KEC,092220
1409,LF,093050
1410,NH투자증권,005940
1411,S&T모티브,064960
1412,SBS미디어홀딩스,101060
1413,SK,034730
1414,SK네트웍스,001740
1415,SK이노베이션,096770
1416,갤럭시아에스엠,011420
1417,경동도시가스,267290
1418,경보제약,214390
1419,계룡건설산업,013580
1420,고려아연,010130
1421,그린케미칼,083420
1422,금호석유화학,011780
1423,넥센,005720
1424,넷마블,251270
1425,녹십자홀딩스,005250
1426,농심,004370
1427,대덕GDS,004130
1428,대상,001680
1429,대성에너지,117580
1430,대유에이텍,002880
1431,대한방직,001070
1432,대한제당,001790
1433,대현,016090
1434,덕성,004830
1435,동남합성,023450
1436,동서,026960
1437,동성화학,005190
1438,동아쏘시오홀딩스,000640
1439,동양생명,082640
1440,동양철관,008970
1441,동양피스톤,092780
1442,동원,003580
1443,동일산업,004890
1444,두산밥캣,241560
1445,디와이파워,210540
1446,디피씨,026890
1447,메타랩스,090370
1448,무림페이퍼,009200
1449,백광산업,001340
1450,백산,035150
1451,부산산업,011390
1452,사조대림,003960
1453,사조씨푸드,014710
1454,삼성바이오로직스,207940
1455,삼성출판사,068290
1456,삼양패키징,272550
1457,삼원강재,023000
1458,서연이화,200880
1459,세이브존I&C,067830
1460,수산중공업,017550
1461,신대양제지,016590
1462,신성이엔지,011930
1463,신세계I&C,035510
1464,신원,009270
1465,신한,005450
1466,아이엔지생명,079440
1467,애경산업,018250
1468,영진약품,003520
1469,오리엔트바이오,002630
1470,용평리조트,070960
1471,우리은행,000030
1472,웰바이오텍,010600
1473,윌비스,008600
1474,유나이티드,033270
1475,유니온,000910
1476,유수홀딩스,000700
1477,인디에프,014990
1478,조광페인트,004910
1479,지코,010580
1480,코리아써키트,007810
1481,코스모신소재,005070
1482,쿠쿠홈시스,284740
1483,키움증권,039490
1484,태광산업,003240
1485,태양금속공업,004100
1486,테이팩스,055490
1487,팜스코,036580
1488,퍼시스,016800
1489,페이퍼코리아,001020
1490,평화산업,090080
1491,필룩스,033180
1492,하나니켈2호,099350
1493,하이트진로홀딩스,000140
1494,한국내화,010040
1495,한국단자공업,025540
1496,한라,014790
1497,한솔홈데코,025750
1498,한익스프레스,014130
1499,한전KPS,051600
1500,한진중공업홀딩스,003480
1501,한화갤러리아타임월드,027390
1502,한화생명,088350
1503,현대로템,064350
1504,현대중공업,009540
1505,휠라코리아,081660
1506,3S,060310
1507,AP시스템,265520
1508,CNH,023460
1509,CSA 코스믹,083660
1510,DSC인베스트먼트,241520
1511,NEW,160550
1512,SBI핀테크솔루션즈,950110
1513,SG,255220
1514,TPC,048770
1515,YW,051390
1516,강스템바이오텍,217730
1517,게임빌,063080
1518,골프존,215000
1519,광진윈텍,090150
1520,기산텔레콤,035460
1521,네이처셀,007390
1522,녹십자랩셀,144510
1523,다믈멀티미디어,093640
1524,다우데이타,032190
1525,대동금속,020400
1526,대동기어,008830
1527,대양제지,006580
1528,대원,007680
1529,대한광통신,010170
1530,더블유에프엠,035290
1531,덕신하우징,090410
1532,동국제약,086450
1533,동성화인텍,033500
1534,동아화성,041930
1535,동양에스텍,060380
1536,동양파일,228340
1537,듀오백,073190
1538,디바이스이엔지,187870
1539,디오,039840
1540,라이트론,069540
1541,레드로버,060300
1542,로고스바이오,238120
1543,마이크로프랜드,147760
1544,모다이노칩,080420
1545,바이오니아,064550
1546,바이오빌,065940
1547,바이오톡스텍,086040
1548,보라티알,250000
1549,부방,014470
1550,브리지텍,064480
1551,비츠로시스,054220
1552,삼영이엔씨,065570
1553,삼지전자,037460
1554,서진시스템,178320
1555,서진오토모티브,122690
1556,세명전기,017510
1557,솔본,035610
1558,솔브레인,036830
1559,스킨앤스킨,159910
1560,승일,049830
1561,신한제4호스팩,277480
1562,씨티케이코스메틱스,260930
1563,아바텍,149950
1564,아이진,185490
1565,아이컴포넌트,059100
1566,아이티센,124500
1567,아진엑스텍,059120
1568,알테오젠,196170
1569,액션스퀘어,205500
1570,앱클론,174900
1571,에버다임,041440
1572,에스넷,038680
1573,에스앤씨엔진그룹,900080
1574,에스와이패널,109610
1575,에이씨티,138360
1576,에이치엔티,176440
1577,에이테크솔루션,071670
1578,에프엔에스테크,083500
1579,엔시트론,101400
1580,오리엔탈정공,014940
1581,오스템,031510
1582,와이제이엠게임즈,193250
1583,우리기술,032820
1584,우리산업,215360
1585,우리산업홀딩스,072470
1586,우리이앤엘,153490
1587,원익QnC,074600
1588,원풍물산,008290
1589,위너지스,026260
1590,유비벨록스,089850
1591,유에스티,263770
1592,육일씨엔에쓰,191410
1593,이녹스,088390
1594,이녹스첨단소재,272290
1595,이라이콤,041520
1596,이에스에이,052190
1597,이엠넷,123570
1598,이크레더블,092130
1599,인콘,083640
1600,인포바인,115310
1601,인화정공,101930
1602,잉글우드랩,950140
1603,자연과환경,043910
1604,정원엔시스,045510
1605,제노레이,122310
1606,제미니투자,019570
1607,제일바이오,052670
1608,중앙오션,054180
1609,지와이커머스,111820
1610,진로발효,018120
1611,청담러닝,096240
1612,칩스앤미디어,094360
1613,카스,016920
1614,카카오M,016170
1615,케이엘넷,039420
1616,코나아이,052400
1617,코위버,056360
1618,코이즈,121850
1619,코프라,126600
1620,큐로홀딩스,051780
1621,큐브엔터,182360
1622,티에스인베스트먼트,246690
1623,파세코,037070
1624,파이오링크,170790
1625,팍스넷,038160
1626,푸드웰,005670
1627,프로스테믹스,203690
1628,플레이위드,023770
1629,필옵틱스,161580
1630,하이록코리아,013030
1631,한국경제TV,039340
1632,한국선재,025550
1633,한국알콜,017890
1634,한국정밀기계,101680
1635,한국제6호스팩,281410
1636,한국컴퓨터,054040
1637,한네트,052600
1638,한탑,002680
1639,휴온스글로벌,084110
1640,휴젤,145020
1641,흥국,010240
1642,극동자동화,272420
1643,다이오진,271850
1644,대주이엔티,114920
1645,드림티엔터테인먼트,220110
1646,비엔디생활건강,215050
1647,스페이스솔루션,245030
1648,시그넷이브이,260870
1649,안지오랩,251280
1650,에듀케이션파트너,208890
1651,에스앤디,260970
1652,에스케이씨에스,224020
1653,엘피케이,183350
1654,원텍,216280
1655,자비스,230400
1656,티씨엠생명과학,228180
1657,파마리서치바이오,217950
1658,플럼라인생명과학,222670
1659,GKL,114090
1660,GS,078930
1661,GS리테일,007070
1662,HDC현대산업개발,294870
1663,NI스틸,008260
1664,OCI,010060
1665,SKC,011790
1666,SK디앤디,210980
1667,STX,011810
1668,강원랜드,035250
1669,경인양행,012610
1670,고려개발,004200
1671,광동제약,009290
1672,광주신세계,037710
1673,국제약품,002720
1674,남성,004270
1675,넥센타이어,002350
1676,대덕전자,008060
1677,대동전자,008110
1678,대상홀딩스,084690
1679,대우부품,009320
1680,대웅제약,069620
1681,대원전선,006340
1682,대한유화,006650
1683,동국제강,001230
1684,동방아그로,007590
1685,동북아12호선박투자,083370
1686,동아에스티,170900
1687,동원수산,030720
1688,동원시스템즈,014820
1689,동화약품,000020
1690,롯데하이마트,071840
1691,만호제강,001080
1692,맥쿼리인프라,088980
1693,명문제약,017180
1694,미래에셋생명,085620
1695,바다로19호,155900
1696,벽산,007210
1697,사조오양,006090
1698,삼광글라스,005090
1699,삼성SDI,006400
1700,삼영전자공업,005680
1701,삼영화학공업,003720
1702,삼진제약,005500
1703,삼화전기,009470
1704,샘표식품,248170
1705,서연,007860
1706,선도전기,007610
1707,성안,011300
1708,세방전지,004490
1709,신성통상,005390
1710,신풍제약,019170
1711,쌍용양회공업,003410
1712,씨아이테크,004920
1713,아세아시멘트,183190
1714,애경유화,161000
1715,엔케이,085310
1716,엔케이물산,009810
1717,영흥철강,012160
1718,오리온홀딩스,001800
1719,우리종금,010050
1720,웅진에너지,103130
1721,원림,005820
1722,유니퀘스트,077500
1723,이아이디,093230
1724,인팩,023810
1725,일성건설,013360
1726,일성신약,003120
1727,제일파마홀딩스,002620
1728,종근당홀딩스,001630
1729,진양폴리우레탄,010640
1730,카카오,035720
1731,케이씨텍,281820
1732,케이티,030200
1733,케이티스,058860
1734,케이티스카이라이프,053210
1735,코리안리,003690
1736,코오롱글로벌,003070
1737,트러스제7호,140890
1738,하나금융지주,086790
1739,하나니켈1호,099340
1740,하이스틸,071090
1741,한국가스공사,036460
1742,한국패러랠,168490
1743,한국화장품제조,003350
1744,한독,002390
1745,한미글로벌,053690
1746,한성기업,003680
1747,한솔피엔에스,010420
1748,한신기계공업,011700
1749,한올바이오파마,009420
1750,한전산업,130660
1751,한화케미칼,009830
1752,현대건설기계,267270
1753,현대상선,011200
1754,화천기공,000850
1755,C&S자산관리,032040
1756,CS,065770
1757,GS홈쇼핑,028150
1758,JYP Ent.,035900
1759,KTH,036030
1760,SDN,099220
1761,SM Life Design,063440
1762,STC,123260
1763,가온미디어,078890
1764,갑을메탈,024840
1765,갤럭시아컴즈,094480
1766,경창산업,024910
1767,고려시멘트,198440
1768,교보7호스팩,267320
1769,글로본,019660
1770,금화피에스시,036190
1771,나무가,190510
1772,나이스정보통신,036800
1773,내츄럴엔도텍,168330
1774,네오오토,212560
1775,네오팜,092730
1776,농우바이오,054050
1777,뉴로스,126870
1778,대아티아이,045390
1779,대원미디어,048910
1780,대정화금,120240
1781,대한뉴팜,054670
1782,데브시스터즈,194480
1783,도이치모터스,067990
1784,동구바이오제약,006620
1785,동일금속,109860
1786,동화기업,025900
1787,디스플레이텍,066670
1788,디에스케이,109740
1789,디이엔티,079810
1790,라온시큐어,042510
1791,루트로닉,085370
1792,리노스,039980
1793,린드먼아시아,277070
1794,마크로젠,038290
1795,매커스,093520
1796,메디아나,041920
1797,메디톡스,086900
1798,메디프론,065650
1799,미래SCI,028040
1800,미래에셋대우스팩1호,265480
1801,미래에셋제5호스팩,239340
1802,미래테크놀로지,213090
1803,바른전자,064520
1804,바이오스마트,038460
1805,배럴,267790
1806,비아트론,141000
1807,비즈니스온,138580
1808,빅솔론,093190
1809,삼륭물산,014970
1810,삼천당제약,000250
1811,서울반도체,046890
1812,성우전자,081580
1813,셀바스AI,108860
1814,수성,084180
1815,슈피겐코리아,192440
1816,스타플렉스,115570
1817,시공테크,020710
1818,시큐브,131090
1819,신라에스지,025870
1820,신일제약,012790
1821,씨유메디칼,115480
1822,씨케이에이치,900120
1823,아나패스,123860
1824,아난티,025980
1825,아미코젠,092040
1826,아우딘퓨쳐스,227610
1827,아이씨디,040910
1828,아이에이,038880
1829,아이오케이,078860
1830,아이크래프트,052460
1831,알비케이이엠디,106080
1832,알엔투테크놀로지,148250
1833,앤디포스,238090
1834,에스엔유,080000
1835,에스엔텍,160600
1836,에스폴리텍,050760
1837,에이디칩스,054630
1838,에이디테크놀로지,200710
1839,에이치엘비파워,043220
1840,에이티넘인베스트,021080
1841,에이티젠,182400
1842,에이티테크놀러지,073570
1843,에프알텍,073540
1844,엔지스테크널러지,208860
1845,엘오티베큠,083310
1846,예스티,122640
1847,우리로,046970
1848,원익IPS,240810
1849,웰크론,065950
1850,웹스,196700
1851,윈스,136540
1852,유니셈,036200
1853,유아이엘,049520
1854,유앤아이,056090
1855,유진로봇,056080
1856,이그잭스,060230
1857,이더블유케이,258610
1858,이랜텍,054210
1859,이루온,065440
1860,이스트소프트,047560
1861,이엠텍,091120
1862,이퓨쳐,134060
1863,이화전기,024810
1864,인베니아,079950
1865,인지디스플레,037330
1866,인터로조,119610
1867,인터엠,017250
1868,인터파크홀딩스,035080
1869,잉크테크,049550
1870,장원테크,174880
1871,정다운,208140
1872,정상제이엘에스,040420
1873,제룡전기,033100
1874,제이웨이,058420
1875,제일제강,023440
1876,좋은사람들,033340
1877,캔서롭,180400
1878,컬러레이,900310
1879,케이비제11호스팩,258790
1880,케이비제9호스팩,232270
1881,케이아이엔엑스,093320
1882,케이엠,083550
1883,케이프,064820
1884,케이피엠테크,042040
1885,켐온,217600
1886,코다코,046070
1887,코데즈컴바인,047770
1888,코렌텍,104540
1889,코아시아홀딩스,045970
1890,코텍,052330
1891,큐로컴,040350
1892,큐리언트,115180
1893,크루셜텍,114120
1894,크리스탈신소재,900250
1895,키이스트,054780
1896,타이거일렉,219130
1897,테라셈,182690
1898,테스나,131970
1899,티에스이,131290
1900,티플랙스,081150
1901,팅크웨어,084730
1902,파버나인,177830
1903,파인테크닉스,106240
1904,팜스웰바이오,043090
1905,포스코엠텍,009520
1906,프럼파스트,035200
1907,피제이메탈,128660
1908,하나금융10호스팩,270520
1909,하나금융7호SPAC,230240
1910,하나금융9호스팩,261200
1911,하이셈,200470
1912,한국제7호스팩,291210
1913,한국캐피탈,023760
1914,한국큐빅,021650
1915,한국팩키지,037230
1916,한빛소프트,047080
1917,한솔인티큐브,070590
1918,한컴MDS,086960
1919,한화에이스스팩3호,264290
1920,해마로푸드서비스,220630
1921,행남사,008800
1922,현성바이탈,204990
1923,현우산업,092300
1924,화이브라더스코리아,204630
1925,휴맥스홀딩스,028080
1926,휴비츠,065510
1927,KC산업,112190
1928,SGA임베디드,224880
1929,그린플러스,186230
1930,바이옵트로,222160
1931,뿌리깊은나무들,266170
1932,엄지하우스,224810
1933,위월드,140660
1934,유쎌,252370
1935,큐엠씨,136660
1936,티에스아이,277880
1937,티케이씨,191600
1938,CJ씨푸드,011150
1939,F&F,007700
1940,KG케미칼,001390
1941,LG이노텍,011070
1942,LG화학,051910
1943,LS,006260
1944,S&T중공업,003570
1945,SG충방,001380
1946,STX엔진,077970
1947,가온전선,000500
1948,강남제비스코,000860
1949,경동나비엔,009450
1950,경방,000050
1951,광전자,017900
1952,극동유화,014530
1953,나노메딕스,074610
1954,남선알미늄,008350
1955,노루페인트,090350
1956,대동공업,000490
1957,대림비앤코,005750
1958,대유플러스,000300
1959,대한제강,084010
1960,동양,001520
1961,동원F&B,049770
1962,두올,016740
1963,디티알오토모티브,007340
1964,롯데제과,280360
1965,모나리자,012690
1966,모나미,005360
1967,미래에셋대우,006800
1968,미창석유공업,003650
1969,범양건영,002410
1970,부광약품,003000
1971,삼성에스디에스,018260
1972,삼성증권,016360
1973,삼성화재해상보험,000810
1974,삼호,001880
1975,삼화왕관,004450
1976,성보화학,003080
1977,세우글로벌,013000
1978,신도리코,029530
1979,신라교역,004970
1980,신한지주,055550
1981,써니전자,004770
1982,아모레퍼시픽,090430
1983,아티스,101140
1984,알루코,001780
1985,알보젠코리아,002250
1986,에이프로젠제약,003060
1987,엔에스쇼핑,138250
1988,오리온,271560
1989,우리들휴브레인,118000
1990,우성사료,006980
1991,유니온머티리얼,047400
1992,인천도시가스,034590
1993,일신석재,007110
1994,잇츠한불,226320
1995,제주은행,006220
1996,지역난방공사,071320
1997,진도,088790
1998,참엔지니어링,009310
1999,청호컴넷,012600
2000,카프로,006380
2001,컨버즈,109070
2002,코오롱플라스틱,138490
2003,쿠쿠홀딩스,192400
2004,태림포장,011280
2005,텔코웨어,078000
2006,티에이치엔,019180
2007,한국전력공사,015760
2008,한국제지,002300
2009,한미사이언스,008930
2010,한세엠케이,069640
2011,한솔제지,213500
2012,한솔홀딩스,004150
2013,한화에어로스페이스,012450
2014,한화투자증권,003530
2015,해성디에스,195870
2016,현대제철,004020
2017,현대종합상사,011760
2018,현대해상,001450
2019,화성산업,002460
2020,화승알앤에이,013520
2021,황금에스티,032560
2022,후성,093370
2023,CJ오쇼핑,035760
2024,HB테크놀러지,078150
2025,JW신약,067290
2026,KCC건설,021320
2027,KH바텍,060720
2028,KMH,122450
2029,PN풍년,024940
2030,S&K폴리텍,091340
2031,SBS콘텐츠허브,046140
2032,SKC코오롱PI,178920
2033,UCI,038340
2034,iMBC,052220
2035,경남제약,053950
2036,고려신용정보,049720
2037,골든센츄리,900280
2038,국보디자인,066620
2039,글로벌텍스프리,204620
2040,넥스트BT,065170
2041,녹원씨엔아이,065560
2042,누리플랜,069140
2043,뉴프렉스,085670
2044,다나와,119860
2045,대신밸런스제4호스팩,262830
2046,대원산업,005710
2047,대창솔루션,096350
2048,대한약품,023910
2049,데코앤이,017680
2050,동원개발,013120
2051,디앤씨미디어,263720
2052,디케이디앤아이,033310
2053,링크제니시스,219420
2054,메가스터디,072870
2055,메지온,140410
2056,메타바이오메드,059210
2057,모비스,250060
2058,모헨즈,006920
2059,미래생명자원,218150
2060,바른손,018700
2061,보성파워텍,006910
2062,비츠로테크,042370
2063,비트컴퓨터,032850
2064,사람인에이치알,143240
2065,삼목에스폼,018310
2066,삼영엠텍,054540
2067,삼우엠스,082660
2068,삼화네트웍스,046390
2069,상보,027580
2070,서부T&D,006730
2071,서연탑메탈,019770
2072,성우하이텍,015750
2073,솔루에타,154040
2074,스페코,013810
2075,시스웍,269620
2076,신성델타테크,065350
2077,신원종합개발,017000
2078,신화콘텍,187270
2079,심텍홀딩스,036710
2080,쎄노텍,222420
2081,쎄미시스코,136510
2082,아이디스,143160
2083,아이디스홀딩스,054800
2084,아이앤씨,052860
2085,아이즈비전,031310
2086,아즈텍WB,032080
2087,아트라스BX,023890
2088,안국약품,001540
2089,안랩,053800
2090,알에프텍,061040
2091,알티캐스트,085810
2092,액트,131400
2093,에스엠,041510
2094,에스코넥,096630
2095,에코마케팅,230360
2096,에프앤리퍼블릭,064090
2097,엑사이엔씨,054940
2098,엔에스,217820
2099,엔텔스,069410
2100,엠게임,058630
2101,예림당,036000
2102,오로라,039830
2103,오리콤,010470
2104,오픈베이스,049480
2105,옵트론텍,082210
2106,원익머트리얼즈,104830
2107,원익홀딩스,030530
2108,원일특강,012620
2109,웨이브일렉트로,095270
2110,웰크론강원,114190
2111,유니슨,018000
2112,유비쿼스,264450
2113,유아이디,069330
2114,유진기업,023410
2115,유테크,178780
2116,이글루시큐리티,067920
2117,이엘케이,094190
2118,이젠텍,033600
2119,이테크건설,016250
2120,인선이엔티,060150
2121,인터파크,108790
2122,일신바이오,068330
2123,전파기지국,065530
2124,제이브이엠,054950
2125,제이콘텐트리,036420
2126,중앙백신,072020
2127,지니언스,263860
2128,지디,155960
2129,지엔코,065060
2130,청보산업,013720
2131,초록뱀,047820
2132,케어랩스,263700
2133,켐트로닉스,089010
2134,켐트로스,220260
2135,코리아에스이,101670
2136,코리아에프티,123410
2137,코미코,183300
2138,코미팜,041960
2139,콜마비앤에이치,200130
2140,큐캐피탈,016600
2141,크린앤사이언스,045520
2142,태광,023160
2143,테고사이언스,191420
2144,테라젠이텍스,066700
2145,테스,095610
2146,텔루스,196450
2147,토탈소프트,045340
2148,트레이스,052290
2149,파라다이스,034230
2150,패션플랫폼,225590
2151,펩트론,087010
2152,평화정공,043370
2153,포메탈,119500
2154,포스링크,056730
2155,포시에스,189690
2156,포티스,141020
2157,푸른기술,094940
2158,프리엠스,053160
2159,피앤씨테크,237750
2160,피에스엠씨,024850
2161,피엔티,137400
2162,하이로닉,149980
2163,하이비젼시스템,126700
2164,한국가구,004590
2165,한국기업평가,034950
2166,한국맥널티,222980
2167,한국테크놀로지,053590
2168,한라IMS,092460
2169,한양이엔지,045100
2170,현대아이비티,048410
2171,현진소재,053660
2172,화일약품,061250
2173,효성오앤비,097870
2174,휴맥스,115160
2175,휴메딕스,200670
2176,힘스,238490
2177,라온테크,232680
2178,럭스피아,092590
2179,미애부,225850
2180,바이오시네틱스,281310
2181,바이오코아,216400
2182,볼빅,206950
2183,비플라이소프트,148780
2184,세신버팔로,110660
2185,수젠텍,253840
2186,시큐센,232830
2187,에브리봇,270660
2188,에스알바이오텍,270210
2189,에스에이티이엔지,158300
2190,영현무역,242850
2191,이엠티,232530
2192,인터코스,240340
2193,제노텍,066830
2194,포인트엔지니어링,176560
2195,피엠디아카데미,144740
2196,한중엔시에스,107640
