북한 1557
핵 924
미국 780
김정은 748
우리 686
문재인 635
것 580
평화 528
문 445
국민 440
대통령 437
통일 419
전쟁 410
돈 407
돼지 407
이 386
정은 380
말 367
또 358
때 347
한국 339
남한 333
비핵화 330
나라 329
놈 320
정권 310
그 307
재앙 303
한미 302
정부 297
한반도 271
이제 269
북 264
미군 261
개 259
더 259
대한민국 256
사람 255
대화 247
빨갱이 237
댓글 235
철수 235
거 230
중국 228
년 226
진짜 225
지금 224
뭐 224
종전 218
왜 215
